<svg version="1.1" viewBox="0 0 349.70242 89.151546" xmlns="http://www.w3.org/2000/svg" xmlns:cc="http://creativecommons.org/ns#" xmlns:dc="http://purl.org/dc/elements/1.1/" xmlns:rdf="http://www.w3.org/1999/02/22-rdf-syntax-ns#">
<title>Git Clone Sources with Antora</title>
<metadata>
<rdf:RDF>
<cc:Work rdf:about="">
<dc:format>image/svg+xml</dc:format>
<dc:type rdf:resource="http://purl.org/dc/dcmitype/StillImage"/>
<dc:title>Git Clone Sources with Antora</dc:title>
<dc:creator>
<cc:Agent>
<dc:title>Sarah White</dc:title>
</cc:Agent>
</dc:creator>
<dc:publisher>
<cc:Agent>
<dc:title>OpenDevise Inc.</dc:title>
</cc:Agent>
</dc:publisher>
<dc:subject>
<rdf:Bag>
<rdf:li>git</rdf:li>
<rdf:li>clone</rdf:li>
<rdf:li>Antora</rdf:li>
</rdf:Bag>
</dc:subject>
<cc:license rdf:resource="http://creativecommons.org/licenses/by-sa/4.0/"/>
</cc:Work>
<cc:License rdf:about="http://creativecommons.org/licenses/by-sa/4.0/">
<cc:permits rdf:resource="http://creativecommons.org/ns#Reproduction"/>
<cc:permits rdf:resource="http://creativecommons.org/ns#Distribution"/>
<cc:requires rdf:resource="http://creativecommons.org/ns#Notice"/>
<cc:requires rdf:resource="http://creativecommons.org/ns#Attribution"/>
<cc:permits rdf:resource="http://creativecommons.org/ns#DerivativeWorks"/>
<cc:requires rdf:resource="http://creativecommons.org/ns#ShareAlike"/>
</cc:License>
</rdf:RDF>
</metadata>
<rect width="100%" height="100%" fill="#fff"/>
<g transform="translate(3.175 -211.02)">
<g>
<g transform="translate(0 30.703)" fill="#242424" stroke-width=".0727px" style="font-feature-settings:normal;font-variant-caps:normal;font-variant-ligatures:normal;font-variant-numeric:normal" aria-label="LOCATE SOURCES">
<path d="m20.685 195.75h0.70556v4.3251h2.6741v0.61383h-3.3796z" style="font-feature-settings:normal;font-variant-caps:normal;font-variant-ligatures:normal;font-variant-numeric:normal"/>
<path d="m27.008 200.74q-0.74789 0-1.3476-0.32455-0.59972-0.33161-0.94544-0.91017-0.33867-0.57855-0.33867-1.2912 0-0.71262 0.33867-1.2912 0.34572-0.57856 0.94544-0.90311 0.59972-0.33161 1.3476-0.33161 0.74083 0 1.3406 0.33161 0.59972 0.32455 0.93839 0.90311 0.33867 0.5715 0.33867 1.2912 0 0.71966-0.33867 1.2982-0.33867 0.5715-0.93839 0.90311-0.59972 0.32455-1.3406 0.32455zm0-0.62794q0.54328 0 0.97367-0.24694 0.43744-0.24695 0.68439-0.67734 0.254-0.43744 0.254-0.97366 0-0.53623-0.254-0.96662-0.24694-0.43744-0.68439-0.68438-0.43039-0.24695-0.97367-0.24695-0.54328 0-0.98778 0.24695-0.43744 0.24694-0.69144 0.68438-0.24694 0.43039-0.24694 0.96662 0 0.53622 0.24694 0.97366 0.254 0.43039 0.69144 0.67734 0.4445 0.24694 0.98778 0.24694z" style="font-feature-settings:normal;font-variant-caps:normal;font-variant-ligatures:normal;font-variant-numeric:normal"/>
<path d="m32.912 200.74q-0.74083 0-1.3406-0.32455-0.59267-0.33161-0.93133-0.90311-0.33867-0.57856-0.33867-1.2982 0-0.71967 0.33867-1.2912 0.33867-0.57856 0.93839-0.90311 0.59972-0.33161 1.3406-0.33161 0.57856 0 1.0583 0.19755 0.47978 0.1905 0.81844 0.5715l-0.45861 0.4445q-0.55739-0.58561-1.3899-0.58561-0.55033 0-0.99483 0.24695-0.4445 0.24694-0.6985 0.68438-0.24694 0.43039-0.24694 0.96662 0 0.53622 0.24694 0.97366 0.254 0.43039 0.6985 0.67734 0.4445 0.24694 0.99483 0.24694 0.8255 0 1.3899-0.59267l0.45861 0.4445q-0.33867 0.381-0.8255 0.57856-0.47978 0.19755-1.0583 0.19755z" style="font-feature-settings:normal;font-variant-caps:normal;font-variant-ligatures:normal;font-variant-numeric:normal"/>
<path d="m38.825 199.45h-2.6247l-0.54328 1.2347h-0.72672l2.2366-4.9389h0.6985l2.2437 4.9389h-0.74083zm-0.24694-0.56445-1.0654-2.42-1.0654 2.42z" style="font-feature-settings:normal;font-variant-caps:normal;font-variant-ligatures:normal;font-variant-numeric:normal"/>
<path d="m41.579 196.36h-1.6933v-0.61383h4.0852v0.61383h-1.6933v4.3251h-0.6985z" style="font-feature-settings:normal;font-variant-caps:normal;font-variant-ligatures:normal;font-variant-numeric:normal"/>
<path d="m48.33 200.07v0.61383h-3.5842v-4.9389h3.4854v0.61383h-2.7799v1.517h2.4765v0.59972h-2.4765v1.5946z" style="font-feature-settings:normal;font-variant-caps:normal;font-variant-ligatures:normal;font-variant-numeric:normal"/>
<path d="m52.813 200.74q-0.55739 0-1.0795-0.16933-0.51506-0.17639-0.81139-0.45155l0.26106-0.55034q0.28222 0.254 0.71967 0.41628 0.4445 0.15522 0.91017 0.15522 0.61383 0 0.91722-0.20461 0.30339-0.21167 0.30339-0.55739 0-0.254-0.16933-0.40922-0.16228-0.16228-0.40922-0.24694-0.23989-0.0847-0.68439-0.1905-0.55739-0.13406-0.90311-0.26812-0.33867-0.13405-0.58561-0.40922-0.23989-0.28222-0.23989-0.75494 0-0.39511 0.20461-0.71261 0.21167-0.3175 0.635-0.508t1.0513-0.1905q0.43744 0 0.86078 0.11289 0.42333 0.11288 0.72672 0.32455l-0.23283 0.56445q-0.31044-0.19756-0.66322-0.29634-0.35278-0.10583-0.69144-0.10583-0.59972 0-0.90311 0.21872-0.29633 0.21872-0.29633 0.56445 0 0.254 0.16933 0.41627 0.16933 0.15523 0.41628 0.24695 0.254 0.0847 0.68439 0.18344 0.55739 0.13406 0.89606 0.26811 0.33867 0.13406 0.57856 0.40923 0.24694 0.27516 0.24694 0.74083 0 0.38805-0.21167 0.71261-0.21167 0.3175-0.64206 0.508-0.43039 0.18344-1.0583 0.18344z" style="font-feature-settings:normal;font-variant-caps:normal;font-variant-ligatures:normal;font-variant-numeric:normal"/>
<path d="m57.986 200.74q-0.74789 0-1.3476-0.32455-0.59972-0.33161-0.94544-0.91017-0.33867-0.57855-0.33867-1.2912 0-0.71262 0.33867-1.2912 0.34572-0.57856 0.94544-0.90311 0.59972-0.33161 1.3476-0.33161 0.74083 0 1.3406 0.33161 0.59972 0.32455 0.93839 0.90311 0.33867 0.5715 0.33867 1.2912 0 0.71966-0.33867 1.2982-0.33867 0.5715-0.93839 0.90311-0.59972 0.32455-1.3406 0.32455zm0-0.62794q0.54328 0 0.97367-0.24694 0.43744-0.24695 0.68439-0.67734 0.254-0.43744 0.254-0.97366 0-0.53623-0.254-0.96662-0.24694-0.43744-0.68439-0.68438-0.43039-0.24695-0.97367-0.24695-0.54328 0-0.98778 0.24695-0.43744 0.24694-0.69144 0.68438-0.24694 0.43039-0.24694 0.96662 0 0.53622 0.24694 0.97366 0.254 0.43039 0.69144 0.67734 0.4445 0.24694 0.98778 0.24694z" style="font-feature-settings:normal;font-variant-caps:normal;font-variant-ligatures:normal;font-variant-numeric:normal"/>
<path d="m63.728 200.74q-0.98778 0-1.5381-0.56444t-0.55033-1.6228v-2.8081h0.70556v2.7799q0 1.5875 1.3899 1.5875 0.67733 0 1.0372-0.38806 0.35983-0.39511 0.35983-1.1994v-2.7799h0.68439v2.8081q0 1.0654-0.55033 1.6298-0.55033 0.55738-1.5381 0.55738z" style="font-feature-settings:normal;font-variant-caps:normal;font-variant-ligatures:normal;font-variant-numeric:normal"/>
<path d="m70.565 200.69-1.0654-1.5169q-0.19756 0.0141-0.31044 0.0141h-1.2206v1.5028h-0.70556v-4.9389h1.9262q0.95956 0 1.5099 0.45861t0.55033 1.263q0 0.5715-0.28222 0.97366-0.28222 0.40217-0.80433 0.58561l1.1712 1.6581zm-1.397-2.1026q0.67028 0 1.0231-0.28927 0.35278-0.28928 0.35278-0.8255 0-0.53623-0.35278-0.81845-0.35278-0.28928-1.0231-0.28928h-1.1994v2.2225z" style="font-feature-settings:normal;font-variant-caps:normal;font-variant-ligatures:normal;font-variant-numeric:normal"/>
<path d="m74.598 200.74q-0.74083 0-1.3406-0.32455-0.59267-0.33161-0.93133-0.90311-0.33867-0.57856-0.33867-1.2982 0-0.71967 0.33867-1.2912 0.33867-0.57856 0.93839-0.90311 0.59972-0.33161 1.3406-0.33161 0.57856 0 1.0583 0.19755 0.47978 0.1905 0.81844 0.5715l-0.45861 0.4445q-0.55739-0.58561-1.3899-0.58561-0.55033 0-0.99483 0.24695-0.4445 0.24694-0.6985 0.68438-0.24694 0.43039-0.24694 0.96662 0 0.53622 0.24694 0.97366 0.254 0.43039 0.6985 0.67734 0.4445 0.24694 0.99483 0.24694 0.8255 0 1.3899-0.59267l0.45861 0.4445q-0.33867 0.381-0.8255 0.57856-0.47978 0.19755-1.0583 0.19755z" style="font-feature-settings:normal;font-variant-caps:normal;font-variant-ligatures:normal;font-variant-numeric:normal"/>
<path d="m81.072 200.07v0.61383h-3.5842v-4.9389h3.4854v0.61383h-2.7799v1.517h2.4765v0.59972h-2.4765v1.5946z" style="font-feature-settings:normal;font-variant-caps:normal;font-variant-ligatures:normal;font-variant-numeric:normal"/>
<path d="m83.654 200.74q-0.55739 0-1.0795-0.16933-0.51506-0.17639-0.81139-0.45155l0.26106-0.55034q0.28222 0.254 0.71967 0.41628 0.4445 0.15522 0.91017 0.15522 0.61383 0 0.91722-0.20461 0.30339-0.21167 0.30339-0.55739 0-0.254-0.16933-0.40922-0.16228-0.16228-0.40922-0.24694-0.23989-0.0847-0.68439-0.1905-0.55739-0.13406-0.90311-0.26812-0.33867-0.13405-0.58561-0.40922-0.23989-0.28222-0.23989-0.75494 0-0.39511 0.20461-0.71261 0.21167-0.3175 0.635-0.508 0.42333-0.1905 1.0513-0.1905 0.43744 0 0.86078 0.11289 0.42333 0.11288 0.72672 0.32455l-0.23283 0.56445q-0.31044-0.19756-0.66322-0.29634-0.35278-0.10583-0.69144-0.10583-0.59972 0-0.90311 0.21872-0.29633 0.21872-0.29633 0.56445 0 0.254 0.16933 0.41627 0.16933 0.15523 0.41628 0.24695 0.254 0.0847 0.68439 0.18344 0.55739 0.13406 0.89606 0.26811 0.33867 0.13406 0.57856 0.40923 0.24694 0.27516 0.24694 0.74083 0 0.38805-0.21167 0.71261-0.21167 0.3175-0.64206 0.508-0.43039 0.18344-1.0583 0.18344z" style="font-feature-settings:normal;font-variant-caps:normal;font-variant-ligatures:normal;font-variant-numeric:normal"/>
</g>
<g transform="translate(-65.605 314.02)" fill="#fff" stroke="#242424" stroke-linejoin="round" stroke-width=".52917">
<path d="m71.955-93.827c-2.8288 0-5.122 2.2932-5.122 5.122 0 0.4743 0.0648 0.93341 0.18545 1.3693 0.0483 0.17456 0.10535 0.34546 0.17116 0.51202l0.15528 0.35291 4.6101 8.5188 4.6161-8.5309 0.13999-0.31808c0.0696-0.17375 0.12995-0.35217 0.18046-0.53473 0.12065-0.43592 0.18541-0.89503 0.18541-1.3693-3e-5 -2.8288-2.2932-5.122-5.122-5.122z"/>
<circle cx="71.955" cy="-88.86" r="2.4822" stroke-dashoffset="72" stroke-linecap="round"/>
</g>
<g transform="translate(0 30.703)" fill="#242424" stroke-width=".0727px" style="font-feature-settings:normal;font-variant-caps:normal;font-variant-ligatures:normal;font-variant-numeric:normal" aria-label="Source 3">
<path d="m211.7 183.88q-0.40005 0-0.77541-0.1136-0.37041-0.11359-0.58772-0.30127l0.22225-0.49883q0.21237 0.16792 0.51858 0.27658 0.31115 0.10372 0.6223 0.10372 0.38523 0 0.57291-0.12348 0.19262-0.12347 0.19262-0.32596 0-0.14817-0.10866-0.24201-0.10371-0.0988-0.2667-0.1531-0.16298-0.0543-0.4445-0.12348-0.39511-0.0938-0.64205-0.18767-0.24201-0.0938-0.41981-0.2914-0.17286-0.20249-0.17286-0.54328 0-0.28645 0.15311-0.51858 0.15804-0.23707 0.46919-0.37535 0.31609-0.13829 0.77047-0.13829 0.31609 0 0.6223 0.079t0.52846 0.22719l-0.2025 0.49883q-0.22719-0.13335-0.47413-0.2025-0.24694-0.0691-0.47907-0.0691-0.3803 0-0.56797 0.12841-0.18274 0.12841-0.18274 0.34078 0 0.14817 0.10371 0.24201 0.10866 0.0938 0.27164 0.14816 0.16299 0.0543 0.4445 0.12348 0.38524 0.0889 0.63218 0.18767 0.24694 0.0938 0.41981 0.2914 0.1778 0.19755 0.1778 0.5334 0 0.28645-0.15805 0.51858-0.1531 0.23213-0.46919 0.37042t-0.77047 0.13829z" style="font-feature-settings:normal;font-variant-caps:normal;font-variant-ligatures:normal;font-variant-numeric:normal"/>
<path d="m214.86 183.86q-0.40005 0-0.72108-0.17286t-0.50377-0.47907q-0.1778-0.31115-0.1778-0.70133 0-0.39017 0.1778-0.69638 0.18274-0.30621 0.50377-0.47907t0.72108-0.17286q0.40498 0 0.72601 0.17286t0.49883 0.47907q0.18274 0.30621 0.18274 0.69638 0 0.39018-0.18274 0.70133-0.1778 0.30621-0.49883 0.47907t-0.72601 0.17286zm0-0.52846q0.34078 0 0.56303-0.22719t0.22225-0.59761q0-0.37041-0.22225-0.5976t-0.56303-0.22719q-0.34079 0-0.56304 0.22719-0.21731 0.22719-0.21731 0.5976 0 0.37042 0.21731 0.59761 0.22225 0.22719 0.56304 0.22719z" style="font-feature-settings:normal;font-variant-caps:normal;font-variant-ligatures:normal;font-variant-numeric:normal"/>
<path d="m219.41 181.19v2.6374h-0.58773v-0.33585q-0.14817 0.1778-0.37042 0.27658-0.22225 0.0938-0.47907 0.0938-0.52846 0-0.83467-0.29139-0.30127-0.29634-0.30127-0.87419v-1.5064h0.61736v1.4224q0 0.3556 0.15804 0.5334 0.16298 0.17286 0.45932 0.17286 0.3309 0 0.52352-0.20249 0.19756-0.20744 0.19756-0.59267v-1.3335z" style="font-feature-settings:normal;font-variant-caps:normal;font-variant-ligatures:normal;font-variant-numeric:normal"/>
<path d="m220.81 181.57q0.2667-0.41486 0.93839-0.41486v0.58773q-0.079-0.0148-0.14323-0.0148-0.36054 0-0.56304 0.21237-0.20249 0.20743-0.20249 0.60255v1.2792h-0.61736v-2.6374h0.58773z" style="font-feature-settings:normal;font-variant-caps:normal;font-variant-ligatures:normal;font-variant-numeric:normal"/>
<path d="m223.46 183.86q-0.40993 0-0.73589-0.17286-0.32597-0.17286-0.50871-0.47907-0.18274-0.31115-0.18274-0.70133 0-0.39017 0.18274-0.69638t0.50377-0.47907q0.32597-0.17286 0.74083-0.17286 0.39017 0 0.68157 0.15804 0.29633 0.15805 0.4445 0.45438l-0.47413 0.27658q-0.1136-0.18274-0.28646-0.27164-0.16792-0.0938-0.37042-0.0938-0.34572 0-0.57291 0.22719-0.22719 0.22225-0.22719 0.5976 0 0.37536 0.22225 0.60255 0.22719 0.22225 0.57785 0.22225 0.2025 0 0.37042-0.0889 0.17286-0.0938 0.28646-0.27658l0.47413 0.27658q-0.15311 0.29633-0.44944 0.45932-0.29139 0.15804-0.67663 0.15804z" style="font-feature-settings:normal;font-variant-caps:normal;font-variant-ligatures:normal;font-variant-numeric:normal"/>
<path d="m227.56 182.52q0 0.0642-0.01 0.18274h-2.0694q0.0543 0.29139 0.28152 0.46426 0.23212 0.16792 0.57291 0.16792 0.43462 0 0.71614-0.28646l0.3309 0.3803q-0.1778 0.21237-0.44944 0.32102-0.27164 0.10866-0.61242 0.10866-0.43462 0-0.76553-0.17286-0.3309-0.17286-0.51364-0.47907-0.1778-0.31115-0.1778-0.70133 0-0.38523 0.17286-0.69144 0.1778-0.31115 0.48895-0.48401t0.70132-0.17286q0.38524 0 0.68651 0.17286 0.30621 0.16792 0.47413 0.47907 0.17286 0.30621 0.17286 0.7112zm-1.3335-0.86924q-0.29633 0-0.50376 0.1778-0.2025 0.17286-0.24695 0.46425h1.4965q-0.0395-0.28645-0.242-0.46425t-0.50377-0.1778z" style="font-feature-settings:normal;font-variant-caps:normal;font-variant-ligatures:normal;font-variant-numeric:normal"/>
<path d="m230.79 181.8q0.47907 0.0593 0.73095 0.32597 0.25189 0.2667 0.25189 0.66675 0 0.30127-0.15311 0.54822-0.1531 0.24694-0.46425 0.39511-0.30621 0.14323-0.75071 0.14323-0.37042 0-0.71614-0.10372-0.34079-0.10866-0.58279-0.29633l0.27658-0.49883q0.18767 0.15804 0.45437 0.25188 0.27164 0.0889 0.5581 0.0889 0.34078 0 0.5334-0.13829 0.19755-0.14322 0.19755-0.38523t-0.18767-0.37536q-0.18274-0.13828-0.56304-0.13828h-0.31609v-0.43957l0.78529-0.93345h-1.5706v-0.53833h2.3558v0.42968z" style="font-feature-settings:normal;font-variant-caps:normal;font-variant-ligatures:normal;font-variant-numeric:normal"/>
</g>
</g>
<g transform="matrix(.074414 0 0 .074414 211.53 218.84)" stroke-width=".98941">
<path d="m128 0c-70.684 0-128 57.307-128 128 0 56.554 36.676 104.53 87.535 121.46 6.3971 1.1849 8.7457-2.7767 8.7457-6.1576 0-3.0523-0.1187-13.135-0.17381-23.831-35.61 7.743-43.124-15.102-43.124-15.102-5.8227-14.795-14.212-18.729-14.212-18.729-11.614-7.9444 0.87541-7.7812 0.87541-7.7812 12.854 0.90297 19.622 13.191 19.622 13.191 11.416 19.569 29.944 13.911 37.249 10.641 1.1488-8.273 4.4661-13.92 8.1267-17.116-28.431-3.2367-58.318-14.212-58.318-63.259 0-13.975 5.0002-25.393 13.188-34.357-1.329-3.224-5.7103-16.243 1.24-33.874 0 0 10.749-3.4402 35.209 13.121 10.21-2.8361 21.16-4.2584 32.038-4.3071 10.878 0.04875 21.837 1.471 32.066 4.3071 24.431-16.561 35.165-13.121 35.165-13.121 6.9673 17.631 2.5838 30.65 1.2548 33.874 8.2073 8.964 13.174 20.382 13.174 34.357 0 49.163-29.944 59.988-58.447 63.157 4.5912 3.9722 8.6821 11.762 8.6821 23.704 0 17.127-0.14837 30.911-0.14837 35.127 0 3.4063 2.304 7.3976 8.7923 6.1406 50.831-16.944 87.461-64.908 87.461-121.44 0-70.694-57.309-128-128-128zm-80.061 182.34c-0.28191 0.63589-1.2824 0.82666-2.1938 0.39002-0.9284-0.41757-1.4498-1.2845-1.1488-1.9225 0.27555-0.65497 1.2781-0.83726 2.2044-0.39849 0.93052 0.41757 1.4604 1.293 1.1382 1.931zm6.2962 5.618c-0.61046 0.56595-1.8038 0.30311-2.6135-0.59138-0.83726-0.89237-0.99411-2.0857-0.37518-2.6602 0.62953-0.56595 1.7869-0.30099 2.6262 0.59138 0.83726 0.90297 1.0005 2.0878 0.36246 2.6602zm4.3195 7.1881c-0.78427 0.54475-2.0667 0.0339-2.8594-1.1043-0.78427-1.1382-0.78427-2.5033 0.01696-3.0502 0.79487-0.54686 2.0582-0.0551 2.8615 1.0747 0.78215 1.1573 0.78215 2.5224-0.01908 3.0798zm7.3051 8.3248c-0.7016 0.77368-2.196 0.56595-3.2897-0.48963-1.1192-1.0323-1.4308-2.4969-0.72704-3.2706 0.71008-0.77579 2.2129-0.55747 3.3151 0.48963 1.1107 1.0302 1.4498 2.5054 0.7016 3.2706zm9.4412 2.8104c-0.30947 1.0026-1.7487 1.4583-3.1985 1.0323-1.4477-0.43877-2.3952-1.613-2.1027-2.6262 0.30099-1.009 1.7466-1.4838 3.207-1.028 1.4456 0.43665 2.3952 1.6024 2.0942 2.622zm10.744 1.1921c0.03603 1.0556-1.1934 1.931-2.7153 1.9501-1.5304 0.0339-2.7683-0.8203-2.7852-1.8589 0-1.0662 1.2018-1.9331 2.7322-1.9586 1.5219-0.0297 2.7683 0.81818 2.7683 1.8674zm10.555-0.40461c0.18229 1.0302-0.87541 2.0878-2.3867 2.3698-1.4859 0.27132-2.8615-0.36457-3.0502-1.3862-0.18441-1.0556 0.89237-2.1133 2.3761-2.3867 1.5134-0.26284 2.8679 0.3561 3.0608 1.4032z" fill="#161614" stroke-width=".98941"/>
</g>
<g transform="translate(0 30.703)" fill="#242424" stroke-width=".0727px" style="font-feature-settings:normal;font-variant-caps:normal;font-variant-ligatures:normal;font-variant-numeric:normal" aria-label="Source 5">
<path d="m321.27 183.88q-0.40005 0-0.7754-0.1136-0.37042-0.11359-0.58773-0.30127l0.22225-0.49883q0.21237 0.16792 0.51858 0.27658 0.31115 0.10372 0.6223 0.10372 0.38524 0 0.57291-0.12348 0.19262-0.12347 0.19262-0.32596 0-0.14817-0.10866-0.24201-0.10371-0.0988-0.2667-0.1531-0.16298-0.0543-0.4445-0.12348-0.39511-0.0938-0.64205-0.18767-0.24201-0.0938-0.41981-0.2914-0.17286-0.20249-0.17286-0.54328 0-0.28645 0.15311-0.51858 0.15804-0.23707 0.46919-0.37535 0.31609-0.13829 0.77047-0.13829 0.31609 0 0.6223 0.079t0.52846 0.22719l-0.20249 0.49883q-0.22719-0.13335-0.47414-0.2025-0.24694-0.0691-0.47907-0.0691-0.38029 0-0.56797 0.12841-0.18274 0.12841-0.18274 0.34078 0 0.14817 0.10372 0.24201 0.10865 0.0938 0.27163 0.14816 0.16299 0.0543 0.4445 0.12348 0.38524 0.0889 0.63218 0.18767 0.24695 0.0938 0.41981 0.2914 0.1778 0.19755 0.1778 0.5334 0 0.28645-0.15805 0.51858-0.1531 0.23213-0.46919 0.37042t-0.77047 0.13829z" style="font-feature-settings:normal;font-variant-caps:normal;font-variant-ligatures:normal;font-variant-numeric:normal"/>
<path d="m324.43 183.86q-0.40005 0-0.72108-0.17286t-0.50377-0.47907q-0.1778-0.31115-0.1778-0.70133 0-0.39017 0.1778-0.69638 0.18274-0.30621 0.50377-0.47907t0.72108-0.17286q0.40499 0 0.72601 0.17286 0.32103 0.17286 0.49883 0.47907 0.18274 0.30621 0.18274 0.69638 0 0.39018-0.18274 0.70133-0.1778 0.30621-0.49883 0.47907-0.32102 0.17286-0.72601 0.17286zm0-0.52846q0.34078 0 0.56303-0.22719t0.22225-0.59761q0-0.37041-0.22225-0.5976t-0.56303-0.22719q-0.34079 0-0.56304 0.22719-0.21731 0.22719-0.21731 0.5976 0 0.37042 0.21731 0.59761 0.22225 0.22719 0.56304 0.22719z" style="font-feature-settings:normal;font-variant-caps:normal;font-variant-ligatures:normal;font-variant-numeric:normal"/>
<path d="m328.98 181.19v2.6374h-0.58773v-0.33585q-0.14817 0.1778-0.37042 0.27658-0.22225 0.0938-0.47907 0.0938-0.52846 0-0.83467-0.29139-0.30127-0.29634-0.30127-0.87419v-1.5064h0.61736v1.4224q0 0.3556 0.15804 0.5334 0.16299 0.17286 0.45932 0.17286 0.33091 0 0.52352-0.20249 0.19756-0.20744 0.19756-0.59267v-1.3335z" style="font-feature-settings:normal;font-variant-caps:normal;font-variant-ligatures:normal;font-variant-numeric:normal"/>
<path d="m330.38 181.57q0.2667-0.41486 0.93839-0.41486v0.58773q-0.079-0.0148-0.14323-0.0148-0.36054 0-0.56303 0.21237-0.2025 0.20743-0.2025 0.60255v1.2792h-0.61736v-2.6374h0.58773z" style="font-feature-settings:normal;font-variant-caps:normal;font-variant-ligatures:normal;font-variant-numeric:normal"/>
<path d="m333.03 183.86q-0.40992 0-0.73589-0.17286t-0.50871-0.47907q-0.18273-0.31115-0.18273-0.70133 0-0.39017 0.18273-0.69638 0.18274-0.30621 0.50377-0.47907 0.32597-0.17286 0.74083-0.17286 0.39018 0 0.68157 0.15804 0.29633 0.15805 0.4445 0.45438l-0.47413 0.27658q-0.1136-0.18274-0.28646-0.27164-0.16792-0.0938-0.37041-0.0938-0.34573 0-0.57292 0.22719-0.22718 0.22225-0.22718 0.5976 0 0.37536 0.22225 0.60255 0.22718 0.22225 0.57785 0.22225 0.20249 0 0.37041-0.0889 0.17286-0.0938 0.28646-0.27658l0.47413 0.27658q-0.1531 0.29633-0.44944 0.45932-0.29139 0.15804-0.67663 0.15804z" style="font-feature-settings:normal;font-variant-caps:normal;font-variant-ligatures:normal;font-variant-numeric:normal"/>
<path d="m337.12 182.52q0 0.0642-0.01 0.18274h-2.0694q0.0543 0.29139 0.28152 0.46426 0.23213 0.16792 0.57291 0.16792 0.43462 0 0.71614-0.28646l0.3309 0.3803q-0.1778 0.21237-0.44943 0.32102-0.27164 0.10866-0.61243 0.10866-0.43462 0-0.76552-0.17286-0.33091-0.17286-0.51365-0.47907-0.1778-0.31115-0.1778-0.70133 0-0.38523 0.17286-0.69144 0.1778-0.31115 0.48895-0.48401t0.70132-0.17286q0.38524 0 0.68651 0.17286 0.30621 0.16792 0.47413 0.47907 0.17286 0.30621 0.17286 0.7112zm-1.3335-0.86924q-0.29633 0-0.50376 0.1778-0.2025 0.17286-0.24695 0.46425h1.4965q-0.0395-0.28645-0.24201-0.46425-0.20249-0.1778-0.50377-0.1778z" style="font-feature-settings:normal;font-variant-caps:normal;font-variant-ligatures:normal;font-variant-numeric:normal"/>
<path d="m339.97 181.71q0.73095 0 1.0816 0.28646 0.35066 0.28152 0.35066 0.77047 0 0.31115-0.15311 0.56303-0.1531 0.25188-0.45932 0.40005-0.30621 0.14817-0.75565 0.14817-0.37041 0-0.71614-0.10372-0.34572-0.10866-0.58278-0.29633l0.27163-0.49883q0.19262 0.15804 0.45932 0.25188 0.27164 0.0889 0.5581 0.0889 0.34078 0 0.5334-0.13829 0.19755-0.14322 0.19755-0.39017 0-0.2667-0.21237-0.40005-0.20743-0.13829-0.71614-0.13829h-0.83467l0.1778-1.8817h2.0299v0.53833h-1.4866l-0.0741 0.8001z" style="font-feature-settings:normal;font-variant-caps:normal;font-variant-ligatures:normal;font-variant-numeric:normal"/>
</g>
<g transform="matrix(.074414 0 0 .074414 321.13 218.84)" stroke-width=".98941">
<path d="m128 0c-70.684 0-128 57.307-128 128 0 56.554 36.676 104.53 87.535 121.46 6.3971 1.1849 8.7457-2.7767 8.7457-6.1576 0-3.0523-0.1187-13.135-0.17381-23.831-35.61 7.743-43.124-15.102-43.124-15.102-5.8227-14.795-14.212-18.729-14.212-18.729-11.614-7.9444 0.87541-7.7812 0.87541-7.7812 12.854 0.90297 19.622 13.191 19.622 13.191 11.416 19.569 29.944 13.911 37.249 10.641 1.1488-8.273 4.4661-13.92 8.1267-17.116-28.431-3.2367-58.318-14.212-58.318-63.259 0-13.975 5.0002-25.393 13.188-34.357-1.329-3.224-5.7103-16.243 1.24-33.874 0 0 10.749-3.4402 35.209 13.121 10.21-2.8361 21.16-4.2584 32.038-4.3071 10.878 0.04875 21.837 1.471 32.066 4.3071 24.431-16.561 35.165-13.121 35.165-13.121 6.9673 17.631 2.5838 30.65 1.2548 33.874 8.2073 8.964 13.174 20.382 13.174 34.357 0 49.163-29.944 59.988-58.447 63.157 4.5912 3.9722 8.6821 11.762 8.6821 23.704 0 17.127-0.14837 30.911-0.14837 35.127 0 3.4063 2.304 7.3976 8.7923 6.1406 50.831-16.944 87.461-64.908 87.461-121.44 0-70.694-57.309-128-128-128zm-80.061 182.34c-0.28191 0.63589-1.2824 0.82666-2.1938 0.39002-0.9284-0.41757-1.4498-1.2845-1.1488-1.9225 0.27555-0.65497 1.2781-0.83726 2.2044-0.39849 0.93052 0.41757 1.4604 1.293 1.1382 1.931zm6.2962 5.618c-0.61046 0.56595-1.8038 0.30311-2.6135-0.59138-0.83726-0.89237-0.99411-2.0857-0.37518-2.6602 0.62953-0.56595 1.7869-0.30099 2.6262 0.59138 0.83726 0.90297 1.0005 2.0878 0.36246 2.6602zm4.3195 7.1881c-0.78427 0.54475-2.0667 0.0339-2.8594-1.1043-0.78427-1.1382-0.78427-2.5033 0.01696-3.0502 0.79487-0.54686 2.0582-0.0551 2.8615 1.0747 0.78215 1.1573 0.78215 2.5224-0.01908 3.0798zm7.3051 8.3248c-0.7016 0.77368-2.196 0.56595-3.2897-0.48963-1.1192-1.0323-1.4308-2.4969-0.72704-3.2706 0.71008-0.77579 2.2129-0.55747 3.3151 0.48963 1.1107 1.0302 1.4498 2.5054 0.7016 3.2706zm9.4412 2.8104c-0.30947 1.0026-1.7487 1.4583-3.1985 1.0323-1.4477-0.43877-2.3952-1.613-2.1027-2.6262 0.30099-1.009 1.7466-1.4838 3.207-1.028 1.4456 0.43665 2.3952 1.6024 2.0942 2.622zm10.744 1.1921c0.03603 1.0556-1.1934 1.931-2.7153 1.9501-1.5304 0.0339-2.7683-0.8203-2.7852-1.8589 0-1.0662 1.2018-1.9331 2.7322-1.9586 1.5219-0.0297 2.7683 0.81818 2.7683 1.8674zm10.555-0.40461c0.18229 1.0302-0.87541 2.0878-2.3867 2.3698-1.4859 0.27132-2.8615-0.36457-3.0502-1.3862-0.18441-1.0556 0.89237-2.1133 2.3761-2.3867 1.5134-0.26284 2.8679 0.3561 3.0608 1.4032z" fill="#161614" stroke-width=".98941"/>
</g>
<g>
<g transform="translate(0 30.703)" fill="#242424" stroke-width=".0727px" style="font-feature-settings:normal;font-variant-caps:normal;font-variant-ligatures:normal;font-variant-numeric:normal" aria-label="Source 2">
<path d="m156.82 183.88q-0.40005 0-0.7754-0.1136-0.37042-0.11359-0.58773-0.30127l0.22225-0.49883q0.21237 0.16792 0.51858 0.27658 0.31115 0.10372 0.6223 0.10372 0.38524 0 0.57291-0.12348 0.19262-0.12347 0.19262-0.32596 0-0.14817-0.10866-0.24201-0.10371-0.0988-0.2667-0.1531-0.16298-0.0543-0.4445-0.12348-0.39511-0.0938-0.64205-0.18767-0.24201-0.0938-0.41981-0.2914-0.17286-0.20249-0.17286-0.54328 0-0.28645 0.15311-0.51858 0.15804-0.23707 0.46919-0.37535 0.31609-0.13829 0.77047-0.13829 0.31609 0 0.6223 0.079t0.52846 0.22719l-0.20249 0.49883q-0.22719-0.13335-0.47414-0.2025-0.24694-0.0691-0.47907-0.0691-0.38029 0-0.56797 0.12841-0.18274 0.12841-0.18274 0.34078 0 0.14817 0.10372 0.24201 0.10865 0.0938 0.27163 0.14816 0.16299 0.0543 0.4445 0.12348 0.38524 0.0889 0.63218 0.18767 0.24695 0.0938 0.41981 0.2914 0.1778 0.19755 0.1778 0.5334 0 0.28645-0.15805 0.51858-0.1531 0.23213-0.46919 0.37042t-0.77047 0.13829z" style="font-feature-settings:normal;font-variant-caps:normal;font-variant-ligatures:normal;font-variant-numeric:normal"/>
<path d="m159.98 183.86q-0.40005 0-0.72108-0.17286t-0.50377-0.47907q-0.1778-0.31115-0.1778-0.70133 0-0.39017 0.1778-0.69638 0.18274-0.30621 0.50377-0.47907t0.72108-0.17286q0.40499 0 0.72601 0.17286 0.32103 0.17286 0.49883 0.47907 0.18274 0.30621 0.18274 0.69638 0 0.39018-0.18274 0.70133-0.1778 0.30621-0.49883 0.47907-0.32102 0.17286-0.72601 0.17286zm0-0.52846q0.34078 0 0.56303-0.22719t0.22225-0.59761q0-0.37041-0.22225-0.5976t-0.56303-0.22719q-0.34079 0-0.56304 0.22719-0.21731 0.22719-0.21731 0.5976 0 0.37042 0.21731 0.59761 0.22225 0.22719 0.56304 0.22719z" style="font-feature-settings:normal;font-variant-caps:normal;font-variant-ligatures:normal;font-variant-numeric:normal"/>
<path d="m164.53 181.19v2.6374h-0.58773v-0.33585q-0.14817 0.1778-0.37042 0.27658-0.22225 0.0938-0.47907 0.0938-0.52846 0-0.83467-0.29139-0.30127-0.29634-0.30127-0.87419v-1.5064h0.61736v1.4224q0 0.3556 0.15804 0.5334 0.16299 0.17286 0.45932 0.17286 0.33091 0 0.52352-0.20249 0.19756-0.20744 0.19756-0.59267v-1.3335z" style="font-feature-settings:normal;font-variant-caps:normal;font-variant-ligatures:normal;font-variant-numeric:normal"/>
<path d="m165.93 181.57q0.2667-0.41486 0.93839-0.41486v0.58773q-0.079-0.0148-0.14323-0.0148-0.36054 0-0.56303 0.21237-0.2025 0.20743-0.2025 0.60255v1.2792h-0.61736v-2.6374h0.58773z" style="font-feature-settings:normal;font-variant-caps:normal;font-variant-ligatures:normal;font-variant-numeric:normal"/>
<path d="m168.58 183.86q-0.40992 0-0.73589-0.17286t-0.50871-0.47907q-0.18273-0.31115-0.18273-0.70133 0-0.39017 0.18273-0.69638 0.18274-0.30621 0.50377-0.47907 0.32597-0.17286 0.74083-0.17286 0.39018 0 0.68157 0.15804 0.29633 0.15805 0.4445 0.45438l-0.47413 0.27658q-0.1136-0.18274-0.28646-0.27164-0.16792-0.0938-0.37041-0.0938-0.34573 0-0.57292 0.22719-0.22718 0.22225-0.22718 0.5976 0 0.37536 0.22225 0.60255 0.22718 0.22225 0.57785 0.22225 0.20249 0 0.37041-0.0889 0.17286-0.0938 0.28646-0.27658l0.47413 0.27658q-0.1531 0.29633-0.44944 0.45932-0.29139 0.15804-0.67663 0.15804z" style="font-feature-settings:normal;font-variant-caps:normal;font-variant-ligatures:normal;font-variant-numeric:normal"/>
<path d="m172.68 182.52q0 0.0642-0.01 0.18274h-2.0694q0.0543 0.29139 0.28152 0.46426 0.23213 0.16792 0.57291 0.16792 0.43462 0 0.71614-0.28646l0.3309 0.3803q-0.1778 0.21237-0.44943 0.32102-0.27164 0.10866-0.61243 0.10866-0.43462 0-0.76552-0.17286-0.33091-0.17286-0.51365-0.47907-0.1778-0.31115-0.1778-0.70133 0-0.38523 0.17286-0.69144 0.1778-0.31115 0.48895-0.48401t0.70132-0.17286q0.38524 0 0.68651 0.17286 0.30621 0.16792 0.47413 0.47907 0.17286 0.30621 0.17286 0.7112zm-1.3335-0.86924q-0.29633 0-0.50376 0.1778-0.2025 0.17286-0.24695 0.46425h1.4965q-0.0395-0.28645-0.24201-0.46425-0.20249-0.1778-0.50377-0.1778z" style="font-feature-settings:normal;font-variant-caps:normal;font-variant-ligatures:normal;font-variant-numeric:normal"/>
<path d="m176.94 183.28v0.54328h-2.5485v-0.42969l1.373-1.3039q0.23213-0.22225 0.31115-0.38524 0.084-0.16792 0.084-0.3309 0-0.24201-0.16298-0.37042t-0.47907-0.12841q-0.52846 0-0.80998 0.36054l-0.44944-0.34572q0.2025-0.27164 0.54328-0.41981 0.34572-0.1531 0.77047-0.1531 0.56303 0 0.89887 0.2667 0.33585 0.2667 0.33585 0.72601 0 0.28152-0.11853 0.52846-0.11854 0.24695-0.45438 0.56304l-0.92357 0.87912z" style="font-feature-settings:normal;font-variant-caps:normal;font-variant-ligatures:normal;font-variant-numeric:normal"/>
</g>
<g transform="matrix(.038679 0 0 .038679 156.53 218.55)" fill="none" fill-rule="evenodd">
<g stroke-width="1.0442">
<g transform="translate(2,19)" stroke-width="1.0442">
<g stroke-width="1.0442">
<g stroke-width="1.0442">
<g transform="matrix(1 0 0 -1 0 457.33)" stroke-width="1.0442">
<g stroke-width="1.0442">
<g stroke-width="1.0442">
<g stroke-width="1.0442">
<g stroke-width="1.0442">
<g transform="translate(.66666 .66666)" stroke-width="1.0442">
<g transform="translate(.532 .77493)" fill="#fc6d26">
<path d="m492 194.67-27.559 84.815-54.617 168.1c-2.8093 8.648-15.045 8.648-17.856 0l-54.619-168.1h-181.37l-54.62 168.1c-2.8093 8.648-15.045 8.648-17.856 0l-54.617-168.1-27.557-84.815c-2.5147-7.736 0.24-16.211 6.82-20.992l238.51-173.29 238.51 173.29c6.58 4.7813 9.3333 13.256 6.82 20.992" stroke-width="1.0442"/>
</g>
<g transform="translate(156.2 1.1603)" fill="#e24329">
<path d="m91 0l90.684 279.1h-181.37z" stroke-width="1.0442"/>
</g>
<g transform="translate(28.531 1.1608)" fill="#fc6d26">
<path d="m218.67 0-90.684 279.09h-127.09z" stroke-width="1.0442"/>
</g>
<g transform="translate(.088533 .25587)" fill="#fca326">
<path d="m29.333 280l-27.559-84.815c-2.5133-7.736 0.24-16.211 6.8213-20.991l238.51-173.29z" stroke-width="1.0442"/>
</g>
<g transform="translate(29.422 280.26)" fill="#e24329">
<path d="m0 0h127.09l-54.619 168.1c-2.8107 8.6493-15.047 8.6493-17.856 0z" stroke-width="1.0442"/>
</g>
<g transform="translate(247.2 1.1608)" fill="#fc6d26">
<path d="m0 0 90.684 279.09h127.09z" stroke-width="1.0442"/>
</g>
<g transform="translate(246.31 .25587)" fill="#fca326">
<path d="m218.67 280l27.559-84.815c2.5133-7.736-0.24-16.211-6.8213-20.991l-238.51-173.29z" stroke-width="1.0442"/>
</g>
<g transform="translate(336.97 280.26)" fill="#e24329">
<path d="m128 0h-127.09l54.619 168.1c2.8107 8.6493 15.047 8.6493 17.856 0z" stroke-width="1.0442"/>
</g>
</g>
</g>
</g>
</g>
</g>
</g>
</g>
</g>
</g>
</g>
</g>
<g transform="translate(0 30.703)" fill="#242424" stroke-width=".0727px" style="font-feature-settings:normal;font-variant-caps:normal;font-variant-ligatures:normal;font-variant-numeric:normal" aria-label="Source 4">
<path d="m266.28 183.88q-0.40005 0-0.77541-0.1136-0.37041-0.11359-0.58773-0.30127l0.22225-0.49883q0.21238 0.16792 0.51859 0.27658 0.31115 0.10372 0.6223 0.10372 0.38523 0 0.57291-0.12348 0.19262-0.12347 0.19262-0.32596 0-0.14817-0.10866-0.24201-0.10372-0.0988-0.2667-0.1531t-0.4445-0.12348q-0.39511-0.0938-0.64206-0.18767-0.242-0.0938-0.4198-0.2914-0.17286-0.20249-0.17286-0.54328 0-0.28645 0.1531-0.51858 0.15805-0.23707 0.4692-0.37535 0.31609-0.13829 0.77046-0.13829 0.31609 0 0.6223 0.079 0.30622 0.079 0.52847 0.22719l-0.2025 0.49883q-0.22719-0.13335-0.47413-0.2025-0.24695-0.0691-0.47907-0.0691-0.3803 0-0.56798 0.12841-0.18274 0.12841-0.18274 0.34078 0 0.14817 0.10372 0.24201 0.10866 0.0938 0.27164 0.14816 0.16298 0.0543 0.4445 0.12348 0.38523 0.0889 0.63218 0.18767 0.24694 0.0938 0.4198 0.2914 0.1778 0.19755 0.1778 0.5334 0 0.28645-0.15804 0.51858-0.15311 0.23213-0.4692 0.37042-0.31608 0.13829-0.77046 0.13829z" style="font-feature-settings:normal;font-variant-caps:normal;font-variant-ligatures:normal;font-variant-numeric:normal"/>
<path d="m269.44 183.86q-0.40005 0-0.72107-0.17286-0.32103-0.17286-0.50377-0.47907-0.1778-0.31115-0.1778-0.70133 0-0.39017 0.1778-0.69638 0.18274-0.30621 0.50377-0.47907 0.32102-0.17286 0.72107-0.17286 0.40499 0 0.72602 0.17286t0.49883 0.47907q0.18274 0.30621 0.18274 0.69638 0 0.39018-0.18274 0.70133-0.1778 0.30621-0.49883 0.47907t-0.72602 0.17286zm0-0.52846q0.34079 0 0.56304-0.22719t0.22225-0.59761q0-0.37041-0.22225-0.5976t-0.56304-0.22719q-0.34078 0-0.56303 0.22719-0.21731 0.22719-0.21731 0.5976 0 0.37042 0.21731 0.59761 0.22225 0.22719 0.56303 0.22719z" style="font-feature-settings:normal;font-variant-caps:normal;font-variant-ligatures:normal;font-variant-numeric:normal"/>
<path d="m273.99 181.19v2.6374h-0.58773v-0.33585q-0.14817 0.1778-0.37042 0.27658-0.22225 0.0938-0.47907 0.0938-0.52846 0-0.83467-0.29139-0.30128-0.29634-0.30128-0.87419v-1.5064h0.61736v1.4224q0 0.3556 0.15805 0.5334 0.16298 0.17286 0.45932 0.17286 0.3309 0 0.52352-0.20249 0.19755-0.20744 0.19755-0.59267v-1.3335z" style="font-feature-settings:normal;font-variant-caps:normal;font-variant-ligatures:normal;font-variant-numeric:normal"/>
<path d="m275.39 181.57q0.2667-0.41486 0.93839-0.41486v0.58773q-0.079-0.0148-0.14322-0.0148-0.36054 0-0.56304 0.21237-0.20249 0.20743-0.20249 0.60255v1.2792h-0.61736v-2.6374h0.58772z" style="font-feature-settings:normal;font-variant-caps:normal;font-variant-ligatures:normal;font-variant-numeric:normal"/>
<path d="m278.04 183.86q-0.40993 0-0.73589-0.17286-0.32597-0.17286-0.50871-0.47907-0.18274-0.31115-0.18274-0.70133 0-0.39017 0.18274-0.69638t0.50377-0.47907q0.32596-0.17286 0.74083-0.17286 0.39017 0 0.68157 0.15804 0.29633 0.15805 0.4445 0.45438l-0.47414 0.27658q-0.11359-0.18274-0.28645-0.27164-0.16792-0.0938-0.37042-0.0938-0.34572 0-0.57291 0.22719-0.22719 0.22225-0.22719 0.5976 0 0.37536 0.22225 0.60255 0.22719 0.22225 0.57785 0.22225 0.2025 0 0.37042-0.0889 0.17286-0.0938 0.28645-0.27658l0.47414 0.27658q-0.15311 0.29633-0.44944 0.45932-0.2914 0.15804-0.67663 0.15804z" style="font-feature-settings:normal;font-variant-caps:normal;font-variant-ligatures:normal;font-variant-numeric:normal"/>
<path d="m282.13 182.52q0 0.0642-0.01 0.18274h-2.0694q0.0543 0.29139 0.28152 0.46426 0.23212 0.16792 0.57291 0.16792 0.43462 0 0.71614-0.28646l0.3309 0.3803q-0.1778 0.21237-0.44944 0.32102-0.27164 0.10866-0.61242 0.10866-0.43462 0-0.76553-0.17286-0.3309-0.17286-0.51364-0.47907-0.1778-0.31115-0.1778-0.70133 0-0.38523 0.17286-0.69144 0.1778-0.31115 0.48895-0.48401t0.70132-0.17286q0.38523 0 0.68651 0.17286 0.30621 0.16792 0.47413 0.47907 0.17286 0.30621 0.17286 0.7112zm-1.3335-0.86924q-0.29633 0-0.50377 0.1778-0.20249 0.17286-0.24694 0.46425h1.4965q-0.0395-0.28645-0.242-0.46425t-0.50377-0.1778z" style="font-feature-settings:normal;font-variant-caps:normal;font-variant-ligatures:normal;font-variant-numeric:normal"/>
<path d="m286.98 183.04h-0.61242v0.78529h-0.6223v-0.78529h-1.8965v-0.4445l1.7039-2.2274h0.6865l-1.6051 2.1287h1.131v-0.69639h0.60254v0.69639h0.61242z" style="font-feature-settings:normal;font-variant-caps:normal;font-variant-ligatures:normal;font-variant-numeric:normal"/>
</g>
</g>
<g transform="matrix(.069623 0 0 .069623 -20.207 186.83)" stroke-width="1.0442">
<g transform="matrix(.55555 0 0 .55555 4114.8 455.51)" fill="none" fill-rule="evenodd">
<g stroke-width="1.0442">
<g transform="translate(2,19)" stroke-width="1.0442">
<g stroke-width="1.0442">
<g stroke-width="1.0442">
<g transform="matrix(1 0 0 -1 0 457.33)" stroke-width="1.0442">
<g stroke-width="1.0442">
<g stroke-width="1.0442">
<g stroke-width="1.0442">
<g stroke-width="1.0442">
<g transform="translate(.66666 .66666)" stroke-width="1.0442">
<g transform="translate(.532 .77493)" fill="#fc6d26">
<path d="m492 194.67-27.559 84.815-54.617 168.1c-2.8093 8.648-15.045 8.648-17.856 0l-54.619-168.1h-181.37l-54.62 168.1c-2.8093 8.648-15.045 8.648-17.856 0l-54.617-168.1-27.557-84.815c-2.5147-7.736 0.24-16.211 6.82-20.992l238.51-173.29 238.51 173.29c6.58 4.7813 9.3333 13.256 6.82 20.992" stroke-width="1.0442"/>
</g>
<g transform="translate(156.2 1.1603)" fill="#e24329">
<path d="m91 0l90.684 279.1h-181.37z" stroke-width="1.0442"/>
</g>
<g transform="translate(28.531 1.1608)" fill="#fc6d26">
<path d="m218.67 0-90.684 279.09h-127.09z" stroke-width="1.0442"/>
</g>
<g transform="translate(.088533 .25587)" fill="#fca326">
<path d="m29.333 280l-27.559-84.815c-2.5133-7.736 0.24-16.211 6.8213-20.991l238.51-173.29z" stroke-width="1.0442"/>
</g>
<g transform="translate(29.422 280.26)" fill="#e24329">
<path d="m0 0h127.09l-54.619 168.1c-2.8107 8.6493-15.047 8.6493-17.856 0z" stroke-width="1.0442"/>
</g>
<g transform="translate(247.2 1.1608)" fill="#fc6d26">
<path d="m0 0 90.684 279.09h127.09z" stroke-width="1.0442"/>
</g>
<g transform="translate(246.31 .25587)" fill="#fca326">
<path d="m218.67 280l27.559-84.815c2.5133-7.736-0.24-16.211-6.8213-20.991l-238.51-173.29z" stroke-width="1.0442"/>
</g>
<g transform="translate(336.97 280.26)" fill="#e24329">
<path d="m128 0h-127.09l54.619 168.1c2.8107 8.6493 15.047 8.6493 17.856 0z" stroke-width="1.0442"/>
</g>
</g>
</g>
</g>
</g>
</g>
</g>
</g>
</g>
</g>
</g>
</g>
</g>
<g transform="translate(0 30.703)" fill="#242424" stroke-width=".0727px" style="font-feature-settings:normal;font-variant-caps:normal;font-variant-ligatures:normal;font-variant-numeric:normal" aria-label="Source 1">
<path d="m102.48 183.88q-0.40005 0-0.77541-0.11359-0.37041-0.1136-0.58772-0.30127l0.22225-0.49883q0.21237 0.16792 0.51858 0.27658 0.31115 0.10371 0.6223 0.10371 0.38523 0 0.57291-0.12347 0.19262-0.12347 0.19262-0.32597 0-0.14816-0.10866-0.242-0.10372-0.0988-0.2667-0.15311-0.16298-0.0543-0.4445-0.12347-0.39511-0.0938-0.64205-0.18768-0.24201-0.0938-0.41981-0.29139-0.17286-0.2025-0.17286-0.54328 0-0.28646 0.1531-0.51858 0.15805-0.23707 0.4692-0.37536 0.31609-0.13829 0.77047-0.13829 0.31608 0 0.6223 0.079 0.30621 0.079 0.52846 0.22719l-0.2025 0.49883q-0.22719-0.13335-0.47413-0.20249-0.24695-0.0691-0.47907-0.0691-0.3803 0-0.56798 0.12841-0.18273 0.12841-0.18273 0.34079 0 0.14816 0.10371 0.242 0.10866 0.0938 0.27164 0.14817 0.16298 0.0543 0.4445 0.12347 0.38523 0.0889 0.63218 0.18768 0.24694 0.0938 0.4198 0.29139 0.1778 0.19756 0.1778 0.5334 0 0.28646-0.15804 0.51859-0.15311 0.23212-0.46919 0.37041-0.31609 0.13829-0.77047 0.13829z" style="font-feature-settings:normal;font-variant-caps:normal;font-variant-ligatures:normal;font-variant-numeric:normal"/>
<path d="m105.64 183.86q-0.40005 0-0.72107-0.17287-0.32103-0.17286-0.50377-0.47907-0.1778-0.31115-0.1778-0.70132t0.1778-0.69638q0.18274-0.30621 0.50377-0.47908 0.32102-0.17286 0.72107-0.17286 0.40499 0 0.72602 0.17286 0.32103 0.17287 0.49883 0.47908 0.18274 0.30621 0.18274 0.69638t-0.18274 0.70132q-0.1778 0.30621-0.49883 0.47907-0.32103 0.17287-0.72602 0.17287zm0-0.52847q0.34079 0 0.56304-0.22718 0.22225-0.22719 0.22225-0.59761t-0.22225-0.59761q-0.22225-0.22718-0.56304-0.22718-0.34078 0-0.56303 0.22718-0.21731 0.22719-0.21731 0.59761t0.21731 0.59761q0.22225 0.22718 0.56303 0.22718z" style="font-feature-settings:normal;font-variant-caps:normal;font-variant-ligatures:normal;font-variant-numeric:normal"/>
<path d="m110.19 181.19v2.6374h-0.58773v-0.33584q-0.14817 0.1778-0.37042 0.27658-0.22225 0.0938-0.47907 0.0938-0.52846 0-0.83467-0.2914-0.30128-0.29633-0.30128-0.87418v-1.5064h0.61737v1.4224q0 0.3556 0.15804 0.5334 0.16298 0.17286 0.45932 0.17286 0.3309 0 0.52352-0.2025 0.19755-0.20743 0.19755-0.59266v-1.3335z" style="font-feature-settings:normal;font-variant-caps:normal;font-variant-ligatures:normal;font-variant-numeric:normal"/>
<path d="m111.59 181.57q0.2667-0.41487 0.93838-0.41487v0.58773q-0.079-0.0148-0.14322-0.0148-0.36054 0-0.56304 0.21238-0.20249 0.20743-0.20249 0.60254v1.2792h-0.61736v-2.6374h0.58773z" style="font-feature-settings:normal;font-variant-caps:normal;font-variant-ligatures:normal;font-variant-numeric:normal"/>
<path d="m114.24 183.86q-0.40993 0-0.73589-0.17287-0.32597-0.17286-0.50871-0.47907-0.18274-0.31115-0.18274-0.70132t0.18274-0.69638 0.50377-0.47908q0.32596-0.17286 0.74083-0.17286 0.39017 0 0.68157 0.15805 0.29633 0.15804 0.4445 0.45438l-0.47414 0.27657q-0.11359-0.18274-0.28645-0.27164-0.16792-0.0938-0.37042-0.0938-0.34572 0-0.57291 0.22718-0.22719 0.22225-0.22719 0.59761t0.22225 0.60254q0.22719 0.22225 0.57785 0.22225 0.2025 0 0.37042-0.0889 0.17286-0.0938 0.28645-0.27657l0.47414 0.27657q-0.15311 0.29634-0.44944 0.45932-0.2914 0.15805-0.67663 0.15805z" style="font-feature-settings:normal;font-variant-caps:normal;font-variant-ligatures:normal;font-variant-numeric:normal"/>
<path d="m118.34 182.52q0 0.0642-0.01 0.18274h-2.0694q0.0543 0.29139 0.28152 0.46425 0.23212 0.16792 0.57291 0.16792 0.43462 0 0.71614-0.28645l0.3309 0.38029q-0.1778 0.21237-0.44944 0.32103t-0.61242 0.10866q-0.43462 0-0.76553-0.17287-0.3309-0.17286-0.51364-0.47907-0.1778-0.31115-0.1778-0.70132 0-0.38523 0.17286-0.69144 0.1778-0.31115 0.48895-0.48402 0.31115-0.17286 0.70132-0.17286 0.38523 0 0.68651 0.17286 0.30621 0.16793 0.47413 0.47908 0.17286 0.30621 0.17286 0.7112zm-1.3335-0.86925q-0.29633 0-0.50377 0.1778-0.20249 0.17286-0.24694 0.46426h1.4965q-0.0395-0.28646-0.242-0.46426t-0.50377-0.1778z" style="font-feature-settings:normal;font-variant-caps:normal;font-variant-ligatures:normal;font-variant-numeric:normal"/>
<path d="m121.29 180.37v3.4572h-0.64206v-2.9189h-0.73095v-0.53834z" style="font-feature-settings:normal;font-variant-caps:normal;font-variant-ligatures:normal;font-variant-numeric:normal"/>
</g>
<g transform="translate(-6.8819 294.98)">
<g transform="translate(-57.29 19.511)" stroke="#242424">
<g transform="matrix(.59431 0 0 .59277 106.65 -202.53)" fill="#fff" stroke="#242424" stroke-dashoffset="72" stroke-linecap="round" stroke-linejoin="round">
<path d="m102.18 181.99c-1.171 0-2.1138 0.94403-2.1138 2.1167v20.818c0 1.2782 1.2074 2.3074 2.7073 2.3074h23.69c1.4999 0 2.7073-1.0291 2.7073-2.3074v-17.452c0-1.2782-1.2074-2.3074-2.7073-2.3074h-12.971c-1.5535 0-2.7055-3.175-4.2599-3.175z" stroke-width=".89154"/>
<rect transform="matrix(1 0 -.13175 .99128 0 0)" x="127.4" y="189.8" width="29.104" height="19.262" rx="2.711" ry="2.2097" stroke-width=".89545"/>
</g>
</g>
<rect transform="rotate(45)" x="39.617" y="-136.5" width="8.3428" height="8.3428" rx=".67974" ry=".67974" fill="#fff"/>
<g transform="matrix(.031511 0 0 .031511 120.5 -66.374)" stroke-width="2.3071">
<path d="m251.17 116.59-111.77-111.77c-6.4323-6.4379-16.873-6.4379-23.314 0l-23.21 23.21 29.443 29.443c6.8424-2.3117 14.688-0.7612 20.142 4.6936 5.4801 5.4885 7.0194 13.401 4.6515 20.266l28.375 28.375c6.8649-2.3651 14.786-0.83423 20.269 4.6571 7.6626 7.6598 7.6626 20.075 0 27.74-7.6654 7.6654-20.081 7.6654-27.749 0-5.7638-5.7694-7.1879-14.235-4.2695-21.336l-26.462-26.462-3e-3 69.638c1.8679 0.92693 3.6319 2.16 5.188 3.7105 7.6626 7.6598 7.6626 20.075 0 27.746-7.6654 7.6626-20.086 7.6626-27.74 0-7.6626-7.671-7.6626-20.086 0-27.746 1.8932-1.8904 4.0841-3.3201 6.4211-4.2807v-70.286c-2.337-0.95502-4.5251-2.3763-6.4211-4.2807-5.8059-5.7975-7.202-14.317-4.2274-21.446l-29.021-29.027-76.64 76.634c-6.4407 6.4436-6.4407 16.884 0 23.322l111.77 111.77c6.4351 6.4379 16.873 6.4379 23.316 0l111.25-111.25c6.4379-6.4408 6.4379-16.887 0-23.325" fill="#de4c36" stroke-width="2.3071"/>
</g>
</g>
<g fill="none" stroke="#242424" stroke-linecap="round" stroke-linejoin="round" stroke-width=".52917">
<path d="m166.2 241.54v26.05"/>
<path d="m221.03 241.54v26.05"/>
<path d="m275.87 241.54v26.05"/>
<path d="m330.71 241.54v26.05"/>
</g>
<g transform="translate(0 30.703)" fill="#242424" stroke-width=".0727px" style="font-feature-settings:normal;font-variant-caps:normal;font-variant-ligatures:normal;font-variant-numeric:normal" aria-label="GIT CLONE / FETCH">
<path d="m24.374 259.8h0.67733v1.9262q-0.36689 0.30339-0.85372 0.46567-0.48683 0.16228-1.016 0.16228-0.74789 0-1.3476-0.32456-0.59972-0.33161-0.94544-0.90311-0.33867-0.57856-0.33867-1.2982 0-0.71967 0.33867-1.2982 0.34572-0.57856 0.94544-0.90312 0.60678-0.32455 1.3617-0.32455 0.59267 0 1.0724 0.19755 0.48683 0.1905 0.8255 0.56445l-0.43744 0.43744q-0.59267-0.5715-1.4323-0.5715-0.56444 0-1.016 0.24695-0.4445 0.23989-0.6985 0.67733-0.254 0.43039-0.254 0.97367 0 0.53622 0.254 0.97366 0.254 0.43039 0.6985 0.67734 0.45156 0.24694 1.0089 0.24694 0.66322 0 1.1571-0.3175z" style="font-feature-settings:normal;font-variant-caps:normal;font-variant-ligatures:normal;font-variant-numeric:normal"/>
<path d="m26.395 257.36h0.70556v4.9389h-0.70556z" style="font-feature-settings:normal;font-variant-caps:normal;font-variant-ligatures:normal;font-variant-numeric:normal"/>
<path d="m29.567 257.97h-1.6933v-0.61384h4.0852v0.61384h-1.6933v4.325h-0.6985z" style="font-feature-settings:normal;font-variant-caps:normal;font-variant-ligatures:normal;font-variant-numeric:normal"/>
<path d="m36.844 262.35q-0.74083 0-1.3406-0.32456-0.59267-0.33161-0.93133-0.90311-0.33867-0.57856-0.33867-1.2982 0-0.71967 0.33867-1.2912 0.33867-0.57855 0.93839-0.90311 0.59972-0.33161 1.3406-0.33161 0.57856 0 1.0583 0.19755 0.47978 0.1905 0.81844 0.5715l-0.45861 0.4445q-0.55739-0.58561-1.3899-0.58561-0.55033 0-0.99483 0.24695-0.4445 0.24694-0.6985 0.68439-0.24694 0.43039-0.24694 0.96661t0.24694 0.97366q0.254 0.43039 0.6985 0.67734 0.4445 0.24694 0.99483 0.24694 0.8255 0 1.3899-0.59266l0.45861 0.4445q-0.33867 0.381-0.8255 0.57855-0.47978 0.19756-1.0583 0.19756z" style="font-feature-settings:normal;font-variant-caps:normal;font-variant-ligatures:normal;font-variant-numeric:normal"/>
<path d="m39.735 257.36h0.70556v4.3251h2.6741v0.61383h-3.3796z" style="font-feature-settings:normal;font-variant-caps:normal;font-variant-ligatures:normal;font-variant-numeric:normal"/>
<path d="m46.057 262.35q-0.74789 0-1.3476-0.32456-0.59972-0.33161-0.94544-0.91017-0.33867-0.57855-0.33867-1.2912t0.33867-1.2912q0.34572-0.57855 0.94544-0.90311 0.59972-0.33161 1.3476-0.33161 0.74083 0 1.3406 0.33161 0.59972 0.32456 0.93839 0.90311 0.33867 0.5715 0.33867 1.2912 0 0.71966-0.33867 1.2982-0.33867 0.5715-0.93839 0.90311-0.59972 0.32456-1.3406 0.32456zm0-0.62795q0.54328 0 0.97367-0.24694 0.43744-0.24695 0.68439-0.67734 0.254-0.43744 0.254-0.97366t-0.254-0.96661q-0.24694-0.43745-0.68439-0.68439-0.43039-0.24695-0.97367-0.24695-0.54328 0-0.98778 0.24695-0.43744 0.24694-0.69144 0.68439-0.24694 0.43039-0.24694 0.96661t0.24694 0.97366q0.254 0.43039 0.69144 0.67734 0.4445 0.24694 0.98778 0.24694z" style="font-feature-settings:normal;font-variant-caps:normal;font-variant-ligatures:normal;font-variant-numeric:normal"/>
<path d="m54 257.36v4.9389h-0.57856l-2.9633-3.683v3.683h-0.70556v-4.9389h0.57856l2.9633 3.683v-3.683z" style="font-feature-settings:normal;font-variant-caps:normal;font-variant-ligatures:normal;font-variant-numeric:normal"/>
<path d="m59.07 261.68v0.61383h-3.5842v-4.9389h3.4854v0.61384h-2.7799v1.5169h2.4765v0.59972h-2.4765v1.5946z" style="font-feature-settings:normal;font-variant-caps:normal;font-variant-ligatures:normal;font-variant-numeric:normal"/>
<path d="m63.504 256.36h0.61383l-2.3283 6.6463h-0.61383z" style="font-feature-settings:normal;font-variant-caps:normal;font-variant-ligatures:normal;font-variant-numeric:normal"/>
<path d="m67.202 257.97v1.7216h2.4765v0.60678h-2.4765v1.9967h-0.70556v-4.9389h3.4854v0.61384z" style="font-feature-settings:normal;font-variant-caps:normal;font-variant-ligatures:normal;font-variant-numeric:normal"/>
<path d="m74.559 261.68v0.61383h-3.5842v-4.9389h3.4854v0.61384h-2.7799v1.5169h2.4765v0.59972h-2.4765v1.5946z" style="font-feature-settings:normal;font-variant-caps:normal;font-variant-ligatures:normal;font-variant-numeric:normal"/>
<path d="m76.682 257.97h-1.6933v-0.61384h4.0852v0.61384h-1.6933v4.325h-0.6985z" style="font-feature-settings:normal;font-variant-caps:normal;font-variant-ligatures:normal;font-variant-numeric:normal"/>
<path d="m81.989 262.35q-0.74083 0-1.3406-0.32456-0.59267-0.33161-0.93133-0.90311-0.33867-0.57856-0.33867-1.2982 0-0.71967 0.33867-1.2912 0.33867-0.57855 0.93839-0.90311 0.59972-0.33161 1.3406-0.33161 0.57856 0 1.0583 0.19755 0.47978 0.1905 0.81844 0.5715l-0.45861 0.4445q-0.55739-0.58561-1.3899-0.58561-0.55033 0-0.99483 0.24695-0.4445 0.24694-0.6985 0.68439-0.24694 0.43039-0.24694 0.96661t0.24694 0.97366q0.254 0.43039 0.6985 0.67734 0.4445 0.24694 0.99483 0.24694 0.8255 0 1.3899-0.59266l0.45861 0.4445q-0.33867 0.381-0.8255 0.57855-0.47978 0.19756-1.0583 0.19756z" style="font-feature-settings:normal;font-variant-caps:normal;font-variant-ligatures:normal;font-variant-numeric:normal"/>
<path d="m89.126 257.36v4.9389h-0.70556v-2.2013h-2.8363v2.2013h-0.70556v-4.9389h0.70556v2.1237h2.8363v-2.1237z" style="font-feature-settings:normal;font-variant-caps:normal;font-variant-ligatures:normal;font-variant-numeric:normal"/>
</g>
<g transform="translate(-6.8819 294.98)" fill="#fff" stroke-dashoffset="72" stroke-linecap="round" stroke-linejoin="round">
<rect x="3.9714" y="-13.205" width="14.568" height="13.261" rx="1.3552" ry="1.3541" stroke="#242424" stroke-width=".52917"/>
<rect x="4.9701" y="-12.176" width="15.281" height="13.912" rx="1.4215" ry="1.4206" stroke="#fff" stroke-width=".52917"/>
<g stroke-width=".52917">
<rect x="5.7783" y="-11.399" width="14.568" height="13.261" rx="1.3552" ry="1.3541" stroke="#242424"/>
<rect x="6.777" y="-10.341" width="15.62" height="14.221" rx="1.42" ry="1.4191" stroke="#fff"/>
<rect x="7.5853" y="-9.5641" width="14.907" height="13.57" rx="1.3552" ry="1.3541" stroke="#242424"/>
</g>
</g>
<g stroke-width=".97697">
<g transform="matrix(.074414 0 0 .074414 321.18 280.86)">
<path d="m251.17 116.59-111.77-111.77c-6.4323-6.4379-16.873-6.4379-23.314 0l-23.21 23.21 29.443 29.443c6.8424-2.3117 14.688-0.7612 20.142 4.6936 5.4801 5.4885 7.0194 13.401 4.6515 20.266l28.375 28.375c6.8649-2.3651 14.786-0.83423 20.269 4.6571 7.6626 7.6598 7.6626 20.075 0 27.74-7.6654 7.6654-20.081 7.6654-27.749 0-5.7638-5.7694-7.1879-14.235-4.2695-21.336l-26.462-26.462-3e-3 69.638c1.8679 0.92693 3.6319 2.16 5.188 3.7105 7.6626 7.6598 7.6626 20.075 0 27.746-7.6654 7.6626-20.086 7.6626-27.74 0-7.6626-7.671-7.6626-20.086 0-27.746 1.8932-1.8904 4.0841-3.3201 6.4211-4.2807v-70.286c-2.337-0.95502-4.5251-2.3763-6.4211-4.2807-5.8059-5.7975-7.202-14.317-4.2274-21.446l-29.021-29.027-76.64 76.634c-6.4407 6.4436-6.4407 16.884 0 23.322l111.77 111.77c6.4351 6.4379 16.873 6.4379 23.316 0l111.25-111.25c6.4379-6.4408 6.4379-16.887 0-23.325" fill="#de4c36" stroke-width=".97697"/>
</g>
<g transform="matrix(.074414 0 0 .074414 211.51 280.86)">
<path d="m251.17 116.59-111.77-111.77c-6.4323-6.4379-16.873-6.4379-23.314 0l-23.21 23.21 29.443 29.443c6.8424-2.3117 14.688-0.7612 20.142 4.6936 5.4801 5.4885 7.0194 13.401 4.6515 20.266l28.375 28.375c6.8649-2.3651 14.786-0.83423 20.269 4.6571 7.6626 7.6598 7.6626 20.075 0 27.74-7.6654 7.6654-20.081 7.6654-27.749 0-5.7638-5.7694-7.1879-14.235-4.2695-21.336l-26.462-26.462-3e-3 69.638c1.8679 0.92693 3.6319 2.16 5.188 3.7105 7.6626 7.6598 7.6626 20.075 0 27.746-7.6654 7.6626-20.086 7.6626-27.74 0-7.6626-7.671-7.6626-20.086 0-27.746 1.8932-1.8904 4.0841-3.3201 6.4211-4.2807v-70.286c-2.337-0.95502-4.5251-2.3763-6.4211-4.2807-5.8059-5.7975-7.202-14.317-4.2274-21.446l-29.021-29.027-76.64 76.634c-6.4407 6.4436-6.4407 16.884 0 23.322l111.77 111.77c6.4351 6.4379 16.873 6.4379 23.316 0l111.25-111.25c6.4379-6.4408 6.4379-16.887 0-23.325" fill="#de4c36" stroke-width=".97697"/>
</g>
<g transform="matrix(.074414 0 0 .074414 156.67 280.86)">
<path d="m251.17 116.59-111.77-111.77c-6.4323-6.4379-16.873-6.4379-23.314 0l-23.21 23.21 29.443 29.443c6.8424-2.3117 14.688-0.7612 20.142 4.6936 5.4801 5.4885 7.0194 13.401 4.6515 20.266l28.375 28.375c6.8649-2.3651 14.786-0.83423 20.269 4.6571 7.6626 7.6598 7.6626 20.075 0 27.74-7.6654 7.6654-20.081 7.6654-27.749 0-5.7638-5.7694-7.1879-14.235-4.2695-21.336l-26.462-26.462-3e-3 69.638c1.8679 0.92693 3.6319 2.16 5.188 3.7105 7.6626 7.6598 7.6626 20.075 0 27.746-7.6654 7.6626-20.086 7.6626-27.74 0-7.6626-7.671-7.6626-20.086 0-27.746 1.8932-1.8904 4.0841-3.3201 6.4211-4.2807v-70.286c-2.337-0.95502-4.5251-2.3763-6.4211-4.2807-5.8059-5.7975-7.202-14.317-4.2274-21.446l-29.021-29.027-76.64 76.634c-6.4407 6.4436-6.4407 16.884 0 23.322l111.77 111.77c6.4351 6.4379 16.873 6.4379 23.316 0l111.25-111.25c6.4379-6.4408 6.4379-16.887 0-23.325" fill="#de4c36" stroke-width=".97697"/>
</g>
<g transform="matrix(.074414 0 0 .074414 266.35 280.86)">
<path d="m251.17 116.59-111.77-111.77c-6.4323-6.4379-16.873-6.4379-23.314 0l-23.21 23.21 29.443 29.443c6.8424-2.3117 14.688-0.7612 20.142 4.6936 5.4801 5.4885 7.0194 13.401 4.6515 20.266l28.375 28.375c6.8649-2.3651 14.786-0.83423 20.269 4.6571 7.6626 7.6598 7.6626 20.075 0 27.74-7.6654 7.6654-20.081 7.6654-27.749 0-5.7638-5.7694-7.1879-14.235-4.2695-21.336l-26.462-26.462-3e-3 69.638c1.8679 0.92693 3.6319 2.16 5.188 3.7105 7.6626 7.6598 7.6626 20.075 0 27.746-7.6654 7.6626-20.086 7.6626-27.74 0-7.6626-7.671-7.6626-20.086 0-27.746 1.8932-1.8904 4.0841-3.3201 6.4211-4.2807v-70.286c-2.337-0.95502-4.5251-2.3763-6.4211-4.2807-5.8059-5.7975-7.202-14.317-4.2274-21.446l-29.021-29.027-76.64 76.634c-6.4407 6.4436-6.4407 16.884 0 23.322l111.77 111.77c6.4351 6.4379 16.873 6.4379 23.316 0l111.25-111.25c6.4379-6.4408 6.4379-16.887 0-23.325" fill="#de4c36" stroke-width=".97697"/>
</g>
</g>
<g fill="#242424" stroke-width=".0727px">
<g transform="translate(0 30.703)" style="font-feature-settings:normal;font-variant-caps:normal;font-variant-ligatures:normal;font-variant-numeric:normal" aria-label="Local Repo 5">
<path d="m314.89 242.66h0.64205v2.914h1.8076v0.54327h-2.4497z" style="font-feature-settings:normal;font-variant-caps:normal;font-variant-ligatures:normal;font-variant-numeric:normal"/>
<path d="m318.95 246.15q-0.40005 0-0.72108-0.17286-0.32103-0.17287-0.50377-0.47908-0.1778-0.31115-0.1778-0.70132t0.1778-0.69638q0.18274-0.30621 0.50377-0.47907 0.32103-0.17287 0.72108-0.17287 0.40499 0 0.72602 0.17287 0.32102 0.17286 0.49882 0.47907 0.18274 0.30621 0.18274 0.69638t-0.18274 0.70132q-0.1778 0.30621-0.49882 0.47908-0.32103 0.17286-0.72602 0.17286zm0-0.52846q0.34078 0 0.56303-0.22719t0.22225-0.59761-0.22225-0.5976q-0.22225-0.22719-0.56303-0.22719t-0.56303 0.22719q-0.21732 0.22718-0.21732 0.5976t0.21732 0.59761q0.22225 0.22719 0.56303 0.22719z" style="font-feature-settings:normal;font-variant-caps:normal;font-variant-ligatures:normal;font-variant-numeric:normal"/>
<path d="m322.15 246.15q-0.40993 0-0.73589-0.17286-0.32597-0.17287-0.50871-0.47908-0.18274-0.31115-0.18274-0.70132t0.18274-0.69638 0.50377-0.47907q0.32596-0.17287 0.74083-0.17287 0.39017 0 0.68157 0.15805 0.29633 0.15804 0.4445 0.45438l-0.47414 0.27657q-0.11359-0.18273-0.28645-0.27163-0.16792-0.0938-0.37042-0.0938-0.34572 0-0.57291 0.22719-0.22719 0.22225-0.22719 0.5976 0 0.37536 0.22225 0.60255 0.22719 0.22225 0.57785 0.22225 0.2025 0 0.37042-0.0889 0.17286-0.0938 0.28645-0.27658l0.47414 0.27658q-0.15311 0.29633-0.44944 0.45931-0.2914 0.15805-0.67663 0.15805z" style="font-feature-settings:normal;font-variant-caps:normal;font-variant-ligatures:normal;font-variant-numeric:normal"/>
<path d="m324.82 243.45q0.58279 0 0.889 0.28152 0.31115 0.27658 0.31115 0.83961v1.5459h-0.58279v-0.32102q-0.1136 0.17286-0.32597 0.2667-0.20743 0.0889-0.50376 0.0889-0.29634 0-0.51859-0.0988-0.22225-0.10372-0.34572-0.28152-0.11853-0.18274-0.11853-0.40993 0-0.3556 0.26176-0.56797 0.2667-0.21731 0.83467-0.21731h0.68157v-0.0395q0-0.27658-0.16793-0.42474-0.16298-0.14817-0.48895-0.14817-0.22225 0-0.43956 0.0691-0.21237 0.0692-0.36054 0.19262l-0.242-0.44944q0.20743-0.15804 0.49883-0.242 0.29139-0.084 0.61736-0.084zm-0.084 2.2521q0.23212 0 0.40992-0.10372 0.18274-0.10865 0.25683-0.30621v-0.30621h-0.63712q-0.5334 0-0.5334 0.35066 0 0.16792 0.13335 0.2667 0.13335 0.0988 0.37042 0.0988z" style="font-feature-settings:normal;font-variant-caps:normal;font-variant-ligatures:normal;font-variant-numeric:normal"/>
<path d="m326.81 242.45h0.61737v3.6646h-0.61737z" style="font-feature-settings:normal;font-variant-caps:normal;font-variant-ligatures:normal;font-variant-numeric:normal"/>
<path d="m331.92 246.11-0.70626-1.0125q-0.0444 5e-3 -0.13335 5e-3h-0.78034v1.0075h-0.64206v-3.4572h1.4224q0.44944 0 0.78035 0.14817 0.33584 0.14817 0.51364 0.42474 0.1778 0.27658 0.1778 0.65688 0 0.39017-0.19262 0.67168-0.18767 0.28152-0.54327 0.41981l0.79516 1.1359zm-0.0148-2.2274q0-0.33091-0.21731-0.50871-0.21732-0.1778-0.63712-0.1778h-0.75071v1.378h0.75071q0.4198 0 0.63712-0.1778 0.21731-0.18274 0.21731-0.51364z" style="font-feature-settings:normal;font-variant-caps:normal;font-variant-ligatures:normal;font-variant-numeric:normal"/>
<path d="m335.68 244.81q0 0.0642-0.01 0.18274h-2.0694q0.0543 0.29139 0.28152 0.46425 0.23212 0.16792 0.57291 0.16792 0.43462 0 0.71614-0.28645l0.3309 0.38029q-0.1778 0.21238-0.44944 0.32103-0.27164 0.10866-0.61242 0.10866-0.43462 0-0.76553-0.17286-0.3309-0.17287-0.51364-0.47908-0.1778-0.31115-0.1778-0.70132 0-0.38523 0.17286-0.69144 0.1778-0.31115 0.48895-0.48401 0.31115-0.17287 0.70132-0.17287 0.38524 0 0.68651 0.17287 0.30621 0.16792 0.47413 0.47907 0.17286 0.30621 0.17286 0.7112zm-1.3335-0.86925q-0.29633 0-0.50376 0.1778-0.2025 0.17286-0.24695 0.46426h1.4965q-0.0395-0.28646-0.242-0.46426t-0.50377-0.1778z" style="font-feature-settings:normal;font-variant-caps:normal;font-variant-ligatures:normal;font-variant-numeric:normal"/>
<path d="m337.73 243.45q0.38524 0 0.68651 0.16793 0.30621 0.16792 0.47907 0.47413t0.17286 0.70626-0.17286 0.7112q-0.17286 0.30621-0.47907 0.47413-0.30127 0.16793-0.68651 0.16793-0.5334 0-0.84455-0.3556v1.2792h-0.61736v-3.5955h0.58773v0.34572q0.15311-0.18768 0.37536-0.28152 0.22719-0.0938 0.49882-0.0938zm-0.0691 2.1731q0.34078 0 0.55809-0.22719 0.22225-0.22719 0.22225-0.59761t-0.22225-0.5976q-0.21731-0.22719-0.55809-0.22719-0.22225 0-0.40005 0.10371-0.1778 0.0988-0.28152 0.28646-0.10371 0.18768-0.10371 0.43462 0 0.24695 0.10371 0.43462 0.10372 0.18768 0.28152 0.2914 0.1778 0.0988 0.40005 0.0988z" style="font-feature-settings:normal;font-variant-caps:normal;font-variant-ligatures:normal;font-variant-numeric:normal"/>
<path d="m340.84 246.15q-0.40005 0-0.72108-0.17286-0.32103-0.17287-0.50377-0.47908-0.1778-0.31115-0.1778-0.70132t0.1778-0.69638q0.18274-0.30621 0.50377-0.47907 0.32103-0.17287 0.72108-0.17287 0.40498 0 0.72601 0.17287 0.32103 0.17286 0.49883 0.47907 0.18274 0.30621 0.18274 0.69638t-0.18274 0.70132q-0.1778 0.30621-0.49883 0.47908-0.32103 0.17286-0.72601 0.17286zm0-0.52846q0.34078 0 0.56303-0.22719t0.22225-0.59761-0.22225-0.5976q-0.22225-0.22719-0.56303-0.22719-0.34079 0-0.56304 0.22719-0.21731 0.22718-0.21731 0.5976t0.21731 0.59761q0.22225 0.22719 0.56304 0.22719z" style="font-feature-settings:normal;font-variant-caps:normal;font-variant-ligatures:normal;font-variant-numeric:normal"/>
<path d="m345.1 243.99q0.73096 0 1.0816 0.28646 0.35066 0.28151 0.35066 0.77046 0 0.31115-0.1531 0.56304-0.15311 0.25188-0.45932 0.40005-0.30621 0.14816-0.75565 0.14816-0.37042 0-0.71614-0.10371-0.34572-0.10866-0.58279-0.29634l0.27164-0.49882q0.19262 0.15804 0.45932 0.25188 0.27164 0.0889 0.55809 0.0889 0.34078 0 0.5334-0.13829 0.19756-0.14323 0.19756-0.39017 0-0.2667-0.21238-0.40005-0.20743-0.13829-0.71613-0.13829h-0.83468l0.1778-1.8817h2.0299v0.53834h-1.4866l-0.0741 0.8001z" style="font-feature-settings:normal;font-variant-caps:normal;font-variant-ligatures:normal;font-variant-numeric:normal"/>
</g>
<g transform="translate(0 30.703)" style="font-feature-settings:normal;font-variant-caps:normal;font-variant-ligatures:normal;font-variant-numeric:normal" aria-label="Local Repo 3">
<path d="m205.24 242.66h0.64206v2.914h1.8076v0.54327h-2.4497z" style="font-feature-settings:normal;font-variant-caps:normal;font-variant-ligatures:normal;font-variant-numeric:normal"/>
<path d="m209.3 246.15q-0.40005 0-0.72108-0.17286-0.32103-0.17287-0.50377-0.47908-0.1778-0.31115-0.1778-0.70132t0.1778-0.69638q0.18274-0.30621 0.50377-0.47907 0.32103-0.17287 0.72108-0.17287 0.40498 0 0.72601 0.17287 0.32103 0.17286 0.49883 0.47907 0.18274 0.30621 0.18274 0.69638t-0.18274 0.70132q-0.1778 0.30621-0.49883 0.47908-0.32103 0.17286-0.72601 0.17286zm0-0.52846q0.34078 0 0.56303-0.22719t0.22225-0.59761-0.22225-0.5976q-0.22225-0.22719-0.56303-0.22719-0.34079 0-0.56304 0.22719-0.21731 0.22718-0.21731 0.5976t0.21731 0.59761q0.22225 0.22719 0.56304 0.22719z" style="font-feature-settings:normal;font-variant-caps:normal;font-variant-ligatures:normal;font-variant-numeric:normal"/>
<path d="m212.51 246.15q-0.40993 0-0.7359-0.17286-0.32596-0.17287-0.5087-0.47908-0.18274-0.31115-0.18274-0.70132t0.18274-0.69638 0.50377-0.47907q0.32596-0.17287 0.74083-0.17287 0.39017 0 0.68157 0.15805 0.29633 0.15804 0.4445 0.45438l-0.47414 0.27657q-0.11359-0.18273-0.28645-0.27163-0.16793-0.0938-0.37042-0.0938-0.34572 0-0.57291 0.22719-0.22719 0.22225-0.22719 0.5976 0 0.37536 0.22225 0.60255 0.22719 0.22225 0.57785 0.22225 0.20249 0 0.37042-0.0889 0.17286-0.0938 0.28645-0.27658l0.47414 0.27658q-0.15311 0.29633-0.44944 0.45931-0.2914 0.15805-0.67663 0.15805z" style="font-feature-settings:normal;font-variant-caps:normal;font-variant-ligatures:normal;font-variant-numeric:normal"/>
<path d="m215.17 243.45q0.58278 0 0.889 0.28152 0.31115 0.27658 0.31115 0.83961v1.5459h-0.58279v-0.32102q-0.1136 0.17286-0.32597 0.2667-0.20743 0.0889-0.50377 0.0889-0.29633 0-0.51858-0.0988-0.22225-0.10372-0.34572-0.28152-0.11854-0.18274-0.11854-0.40993 0-0.3556 0.26177-0.56797 0.2667-0.21731 0.83467-0.21731h0.68156v-0.0395q0-0.27658-0.16792-0.42474-0.16298-0.14817-0.48895-0.14817-0.22225 0-0.43956 0.0691-0.21237 0.0692-0.36054 0.19262l-0.242-0.44944q0.20743-0.15804 0.49882-0.242 0.2914-0.084 0.61737-0.084zm-0.084 2.2521q0.23213 0 0.40993-0.10372 0.18274-0.10865 0.25682-0.30621v-0.30621h-0.63711q-0.5334 0-0.5334 0.35066 0 0.16792 0.13335 0.2667 0.13335 0.0988 0.37041 0.0988z" style="font-feature-settings:normal;font-variant-caps:normal;font-variant-ligatures:normal;font-variant-numeric:normal"/>
<path d="m217.17 242.45h0.61736v3.6646h-0.61736z" style="font-feature-settings:normal;font-variant-caps:normal;font-variant-ligatures:normal;font-variant-numeric:normal"/>
<path d="m222.27 246.11-0.70626-1.0125q-0.0445 5e-3 -0.13335 5e-3h-0.78035v1.0075h-0.64205v-3.4572h1.4224q0.44944 0 0.78034 0.14817 0.33585 0.14817 0.51365 0.42474 0.1778 0.27658 0.1778 0.65688 0 0.39017-0.19262 0.67168-0.18768 0.28152-0.54328 0.41981l0.79516 1.1359zm-0.0148-2.2274q0-0.33091-0.21731-0.50871t-0.63711-0.1778h-0.75072v1.378h0.75072q0.4198 0 0.63711-0.1778 0.21731-0.18274 0.21731-0.51364z" style="font-feature-settings:normal;font-variant-caps:normal;font-variant-ligatures:normal;font-variant-numeric:normal"/>
<path d="m226.04 244.81q0 0.0642-0.01 0.18274h-2.0694q0.0543 0.29139 0.28151 0.46425 0.23213 0.16792 0.57292 0.16792 0.43462 0 0.71613-0.28645l0.33091 0.38029q-0.1778 0.21238-0.44944 0.32103-0.27164 0.10866-0.61242 0.10866-0.43462 0-0.76553-0.17286-0.3309-0.17287-0.51364-0.47908-0.1778-0.31115-0.1778-0.70132 0-0.38523 0.17286-0.69144 0.1778-0.31115 0.48895-0.48401 0.31115-0.17287 0.70132-0.17287 0.38523 0 0.68651 0.17287 0.30621 0.16792 0.47413 0.47907 0.17286 0.30621 0.17286 0.7112zm-1.3335-0.86925q-0.29633 0-0.50377 0.1778-0.20249 0.17286-0.24694 0.46426h1.4965q-0.0395-0.28646-0.242-0.46426t-0.50377-0.1778z" style="font-feature-settings:normal;font-variant-caps:normal;font-variant-ligatures:normal;font-variant-numeric:normal"/>
<path d="m228.09 243.45q0.38523 0 0.68651 0.16793 0.30621 0.16792 0.47907 0.47413t0.17286 0.70626-0.17286 0.7112q-0.17286 0.30621-0.47907 0.47413-0.30128 0.16793-0.68651 0.16793-0.5334 0-0.84455-0.3556v1.2792h-0.61736v-3.5955h0.58773v0.34572q0.1531-0.18768 0.37535-0.28152 0.22719-0.0938 0.49883-0.0938zm-0.0691 2.1731q0.34078 0 0.55809-0.22719 0.22225-0.22719 0.22225-0.59761t-0.22225-0.5976q-0.21731-0.22719-0.55809-0.22719-0.22225 0-0.40005 0.10371-0.1778 0.0988-0.28152 0.28646-0.10372 0.18768-0.10372 0.43462 0 0.24695 0.10372 0.43462 0.10372 0.18768 0.28152 0.2914 0.1778 0.0988 0.40005 0.0988z" style="font-feature-settings:normal;font-variant-caps:normal;font-variant-ligatures:normal;font-variant-numeric:normal"/>
<path d="m231.2 246.15q-0.40005 0-0.72107-0.17286-0.32103-0.17287-0.50377-0.47908-0.1778-0.31115-0.1778-0.70132t0.1778-0.69638q0.18274-0.30621 0.50377-0.47907 0.32102-0.17287 0.72107-0.17287 0.40499 0 0.72602 0.17287 0.32103 0.17286 0.49883 0.47907 0.18274 0.30621 0.18274 0.69638t-0.18274 0.70132q-0.1778 0.30621-0.49883 0.47908-0.32103 0.17286-0.72602 0.17286zm0-0.52846q0.34079 0 0.56304-0.22719t0.22225-0.59761-0.22225-0.5976q-0.22225-0.22719-0.56304-0.22719-0.34078 0-0.56303 0.22719-0.21731 0.22718-0.21731 0.5976t0.21731 0.59761q0.22225 0.22719 0.56303 0.22719z" style="font-feature-settings:normal;font-variant-caps:normal;font-variant-ligatures:normal;font-variant-numeric:normal"/>
<path d="m235.84 244.08q0.47908 0.0593 0.73096 0.32597 0.25188 0.2667 0.25188 0.66675 0 0.30127-0.1531 0.54821-0.15311 0.24695-0.46426 0.39512-0.30621 0.14322-0.75071 0.14322-0.37042 0-0.71614-0.10371-0.34078-0.10866-0.58279-0.29634l0.27658-0.49882q0.18768 0.15804 0.45438 0.25188 0.27164 0.0889 0.55809 0.0889 0.34079 0 0.5334-0.13829 0.19756-0.14323 0.19756-0.38523 0-0.24201-0.18768-0.37536-0.18274-0.13829-0.56303-0.13829h-0.31609v-0.43956l0.78528-0.93345h-1.5706v-0.53834h2.3558v0.42969z" style="font-feature-settings:normal;font-variant-caps:normal;font-variant-ligatures:normal;font-variant-numeric:normal"/>
</g>
<g transform="translate(0 30.703)" style="font-feature-settings:normal;font-variant-caps:normal;font-variant-ligatures:normal;font-variant-numeric:normal" aria-label="Local Repo 2">
<path d="m150.38 242.66h0.64205v2.914h1.8076v0.54327h-2.4497z" style="font-feature-settings:normal;font-variant-caps:normal;font-variant-ligatures:normal;font-variant-numeric:normal"/>
<path d="m154.44 246.15q-0.40005 0-0.72108-0.17286-0.32102-0.17287-0.50376-0.47908-0.1778-0.31115-0.1778-0.70132t0.1778-0.69638q0.18274-0.30621 0.50376-0.47907 0.32103-0.17287 0.72108-0.17287 0.40499 0 0.72602 0.17287 0.32103 0.17286 0.49883 0.47907 0.18273 0.30621 0.18273 0.69638t-0.18273 0.70132q-0.1778 0.30621-0.49883 0.47908-0.32103 0.17286-0.72602 0.17286zm0-0.52846q0.34078 0 0.56303-0.22719t0.22225-0.59761-0.22225-0.5976q-0.22225-0.22719-0.56303-0.22719t-0.56303 0.22719q-0.21731 0.22718-0.21731 0.5976t0.21731 0.59761q0.22225 0.22719 0.56303 0.22719z" style="font-feature-settings:normal;font-variant-caps:normal;font-variant-ligatures:normal;font-variant-numeric:normal"/>
<path d="m157.65 246.15q-0.40992 0-0.73589-0.17286-0.32597-0.17287-0.50871-0.47908-0.18274-0.31115-0.18274-0.70132t0.18274-0.69638 0.50377-0.47907q0.32597-0.17287 0.74083-0.17287 0.39018 0 0.68157 0.15805 0.29633 0.15804 0.4445 0.45438l-0.47413 0.27657q-0.1136-0.18273-0.28646-0.27163-0.16792-0.0938-0.37042-0.0938-0.34572 0-0.57291 0.22719-0.22719 0.22225-0.22719 0.5976 0 0.37536 0.22225 0.60255 0.22719 0.22225 0.57785 0.22225 0.2025 0 0.37042-0.0889 0.17286-0.0938 0.28646-0.27658l0.47413 0.27658q-0.15311 0.29633-0.44944 0.45931-0.29139 0.15805-0.67663 0.15805z" style="font-feature-settings:normal;font-variant-caps:normal;font-variant-ligatures:normal;font-variant-numeric:normal"/>
<path d="m160.31 243.45q0.58279 0 0.889 0.28152 0.31115 0.27658 0.31115 0.83961v1.5459h-0.58279v-0.32102q-0.11359 0.17286-0.32597 0.2667-0.20743 0.0889-0.50376 0.0889-0.29634 0-0.51859-0.0988-0.22225-0.10372-0.34572-0.28152-0.11853-0.18274-0.11853-0.40993 0-0.3556 0.26176-0.56797 0.2667-0.21731 0.83467-0.21731h0.68157v-0.0395q0-0.27658-0.16792-0.42474-0.16299-0.14817-0.48895-0.14817-0.22225 0-0.43956 0.0691-0.21238 0.0692-0.36054 0.19262l-0.24201-0.44944q0.20743-0.15804 0.49883-0.242 0.29139-0.084 0.61736-0.084zm-0.084 2.2521q0.23213 0 0.40993-0.10372 0.18274-0.10865 0.25682-0.30621v-0.30621h-0.63712q-0.5334 0-0.5334 0.35066 0 0.16792 0.13335 0.2667 0.13335 0.0988 0.37042 0.0988z" style="font-feature-settings:normal;font-variant-caps:normal;font-variant-ligatures:normal;font-variant-numeric:normal"/>
<path d="m162.3 242.45h0.61736v3.6646h-0.61736z" style="font-feature-settings:normal;font-variant-caps:normal;font-variant-ligatures:normal;font-variant-numeric:normal"/>
<path d="m167.41 246.11-0.70627-1.0125q-0.0444 5e-3 -0.13335 5e-3h-0.78034v1.0075h-0.64206v-3.4572h1.4224q0.44944 0 0.78035 0.14817 0.33584 0.14817 0.51364 0.42474 0.1778 0.27658 0.1778 0.65688 0 0.39017-0.19261 0.67168-0.18768 0.28152-0.54328 0.41981l0.79516 1.1359zm-0.0148-2.2274q0-0.33091-0.21731-0.50871t-0.63712-0.1778h-0.75071v1.378h0.75071q0.41981 0 0.63712-0.1778 0.21731-0.18274 0.21731-0.51364z" style="font-feature-settings:normal;font-variant-caps:normal;font-variant-ligatures:normal;font-variant-numeric:normal"/>
<path d="m171.18 244.81q0 0.0642-0.01 0.18274h-2.0694q0.0543 0.29139 0.28152 0.46425 0.23213 0.16792 0.57291 0.16792 0.43462 0 0.71614-0.28645l0.33091 0.38029q-0.1778 0.21238-0.44944 0.32103-0.27164 0.10866-0.61243 0.10866-0.43462 0-0.76552-0.17286-0.33091-0.17287-0.51365-0.47908-0.1778-0.31115-0.1778-0.70132 0-0.38523 0.17286-0.69144 0.1778-0.31115 0.48895-0.48401 0.31115-0.17287 0.70133-0.17287 0.38523 0 0.6865 0.17287 0.30621 0.16792 0.47413 0.47907 0.17287 0.30621 0.17287 0.7112zm-1.3335-0.86925q-0.29634 0-0.50377 0.1778-0.2025 0.17286-0.24695 0.46426h1.4965q-0.0395-0.28646-0.24201-0.46426-0.20249-0.1778-0.50376-0.1778z" style="font-feature-settings:normal;font-variant-caps:normal;font-variant-ligatures:normal;font-variant-numeric:normal"/>
<path d="m173.23 243.45q0.38523 0 0.6865 0.16793 0.30621 0.16792 0.47907 0.47413 0.17287 0.30621 0.17287 0.70626t-0.17287 0.7112q-0.17286 0.30621-0.47907 0.47413-0.30127 0.16793-0.6865 0.16793-0.5334 0-0.84455-0.3556v1.2792h-0.61736v-3.5955h0.58772v0.34572q0.15311-0.18768 0.37536-0.28152 0.22719-0.0938 0.49883-0.0938zm-0.0691 2.1731q0.34079 0 0.5581-0.22719 0.22225-0.22719 0.22225-0.59761t-0.22225-0.5976q-0.21731-0.22719-0.5581-0.22719-0.22225 0-0.40005 0.10371-0.1778 0.0988-0.28151 0.28646-0.10372 0.18768-0.10372 0.43462 0 0.24695 0.10372 0.43462 0.10371 0.18768 0.28151 0.2914 0.1778 0.0988 0.40005 0.0988z" style="font-feature-settings:normal;font-variant-caps:normal;font-variant-ligatures:normal;font-variant-numeric:normal"/>
<path d="m176.34 246.15q-0.40005 0-0.72108-0.17286-0.32103-0.17287-0.50377-0.47908-0.1778-0.31115-0.1778-0.70132t0.1778-0.69638q0.18274-0.30621 0.50377-0.47907 0.32103-0.17287 0.72108-0.17287 0.40499 0 0.72601 0.17287 0.32103 0.17286 0.49883 0.47907 0.18274 0.30621 0.18274 0.69638t-0.18274 0.70132q-0.1778 0.30621-0.49883 0.47908-0.32102 0.17286-0.72601 0.17286zm0-0.52846q0.34078 0 0.56303-0.22719t0.22225-0.59761-0.22225-0.5976q-0.22225-0.22719-0.56303-0.22719-0.34079 0-0.56304 0.22719-0.21731 0.22718-0.21731 0.5976t0.21731 0.59761q0.22225 0.22719 0.56304 0.22719z" style="font-feature-settings:normal;font-variant-caps:normal;font-variant-ligatures:normal;font-variant-numeric:normal"/>
<path d="m182.01 245.57v0.54327h-2.5485v-0.42968l1.373-1.3039q0.23213-0.22225 0.31115-0.38523 0.084-0.16792 0.084-0.3309 0-0.24201-0.16298-0.37042-0.16299-0.12841-0.47907-0.12841-0.52847 0-0.80998 0.36054l-0.44944-0.34573q0.20249-0.27163 0.54328-0.4198 0.34572-0.15311 0.77046-0.15311 0.56304 0 0.89888 0.2667 0.33585 0.2667 0.33585 0.72602 0 0.28152-0.11854 0.52846-0.11853 0.24695-0.45438 0.56303l-0.92357 0.87913z" style="font-feature-settings:normal;font-variant-caps:normal;font-variant-ligatures:normal;font-variant-numeric:normal"/>
</g>
<g transform="translate(0 30.703)" style="font-feature-settings:normal;font-variant-caps:normal;font-variant-ligatures:normal;font-variant-numeric:normal" aria-label="Local Repo 4">
<path d="m259.77 242.66h0.64206v2.914h1.8076v0.54327h-2.4497z" style="font-feature-settings:normal;font-variant-caps:normal;font-variant-ligatures:normal;font-variant-numeric:normal"/>
<path d="m263.83 246.15q-0.40005 0-0.72108-0.17286-0.32103-0.17287-0.50377-0.47908-0.1778-0.31115-0.1778-0.70132t0.1778-0.69638q0.18274-0.30621 0.50377-0.47907 0.32103-0.17287 0.72108-0.17287 0.40498 0 0.72601 0.17287 0.32103 0.17286 0.49883 0.47907 0.18274 0.30621 0.18274 0.69638t-0.18274 0.70132q-0.1778 0.30621-0.49883 0.47908-0.32103 0.17286-0.72601 0.17286zm0-0.52846q0.34078 0 0.56303-0.22719t0.22225-0.59761-0.22225-0.5976q-0.22225-0.22719-0.56303-0.22719-0.34079 0-0.56304 0.22719-0.21731 0.22718-0.21731 0.5976t0.21731 0.59761q0.22225 0.22719 0.56304 0.22719z" style="font-feature-settings:normal;font-variant-caps:normal;font-variant-ligatures:normal;font-variant-numeric:normal"/>
<path d="m267.03 246.15q-0.40993 0-0.7359-0.17286-0.32596-0.17287-0.5087-0.47908-0.18274-0.31115-0.18274-0.70132t0.18274-0.69638 0.50376-0.47907q0.32597-0.17287 0.74084-0.17287 0.39017 0 0.68156 0.15805 0.29634 0.15804 0.4445 0.45438l-0.47413 0.27657q-0.11359-0.18273-0.28645-0.27163-0.16793-0.0938-0.37042-0.0938-0.34572 0-0.57291 0.22719-0.22719 0.22225-0.22719 0.5976 0 0.37536 0.22225 0.60255 0.22719 0.22225 0.57785 0.22225 0.20249 0 0.37042-0.0889 0.17286-0.0938 0.28645-0.27658l0.47413 0.27658q-0.1531 0.29633-0.44943 0.45931-0.2914 0.15805-0.67663 0.15805z" style="font-feature-settings:normal;font-variant-caps:normal;font-variant-ligatures:normal;font-variant-numeric:normal"/>
<path d="m269.7 243.45q0.58279 0 0.889 0.28152 0.31115 0.27658 0.31115 0.83961v1.5459h-0.58278v-0.32102q-0.1136 0.17286-0.32597 0.2667-0.20743 0.0889-0.50377 0.0889-0.29633 0-0.51858-0.0988-0.22225-0.10372-0.34572-0.28152-0.11854-0.18274-0.11854-0.40993 0-0.3556 0.26176-0.56797 0.2667-0.21731 0.83468-0.21731h0.68156v-0.0395q0-0.27658-0.16792-0.42474-0.16298-0.14817-0.48895-0.14817-0.22225 0-0.43956 0.0691-0.21237 0.0692-0.36054 0.19262l-0.242-0.44944q0.20743-0.15804 0.49882-0.242 0.2914-0.084 0.61736-0.084zm-0.084 2.2521q0.23213 0 0.40993-0.10372 0.18274-0.10865 0.25682-0.30621v-0.30621h-0.63711q-0.5334 0-0.5334 0.35066 0 0.16792 0.13335 0.2667 0.13335 0.0988 0.37041 0.0988z" style="font-feature-settings:normal;font-variant-caps:normal;font-variant-ligatures:normal;font-variant-numeric:normal"/>
<path d="m271.69 242.45h0.61736v3.6646h-0.61736z" style="font-feature-settings:normal;font-variant-caps:normal;font-variant-ligatures:normal;font-variant-numeric:normal"/>
<path d="m276.8 246.11-0.70626-1.0125q-0.0445 5e-3 -0.13335 5e-3h-0.78035v1.0075h-0.64205v-3.4572h1.4224q0.44944 0 0.78034 0.14817 0.33585 0.14817 0.51365 0.42474 0.1778 0.27658 0.1778 0.65688 0 0.39017-0.19262 0.67168-0.18768 0.28152-0.54328 0.41981l0.79516 1.1359zm-0.0148-2.2274q0-0.33091-0.21731-0.50871t-0.63711-0.1778h-0.75072v1.378h0.75072q0.4198 0 0.63711-0.1778 0.21731-0.18274 0.21731-0.51364z" style="font-feature-settings:normal;font-variant-caps:normal;font-variant-ligatures:normal;font-variant-numeric:normal"/>
<path d="m280.56 244.81q0 0.0642-0.01 0.18274h-2.0694q0.0543 0.29139 0.28151 0.46425 0.23213 0.16792 0.57292 0.16792 0.43462 0 0.71613-0.28645l0.33091 0.38029q-0.1778 0.21238-0.44944 0.32103-0.27164 0.10866-0.61242 0.10866-0.43462 0-0.76553-0.17286-0.3309-0.17287-0.51364-0.47908-0.1778-0.31115-0.1778-0.70132 0-0.38523 0.17286-0.69144 0.1778-0.31115 0.48895-0.48401 0.31115-0.17287 0.70132-0.17287 0.38523 0 0.68651 0.17287 0.30621 0.16792 0.47413 0.47907 0.17286 0.30621 0.17286 0.7112zm-1.3335-0.86925q-0.29633 0-0.50377 0.1778-0.20249 0.17286-0.24694 0.46426h1.4965q-0.0395-0.28646-0.242-0.46426t-0.50377-0.1778z" style="font-feature-settings:normal;font-variant-caps:normal;font-variant-ligatures:normal;font-variant-numeric:normal"/>
<path d="m282.61 243.45q0.38523 0 0.68651 0.16793 0.30621 0.16792 0.47907 0.47413t0.17286 0.70626-0.17286 0.7112q-0.17286 0.30621-0.47907 0.47413-0.30128 0.16793-0.68651 0.16793-0.5334 0-0.84455-0.3556v1.2792h-0.61736v-3.5955h0.58773v0.34572q0.1531-0.18768 0.37535-0.28152 0.22719-0.0938 0.49883-0.0938zm-0.0691 2.1731q0.34078 0 0.55809-0.22719 0.22225-0.22719 0.22225-0.59761t-0.22225-0.5976q-0.21731-0.22719-0.55809-0.22719-0.22225 0-0.40005 0.10371-0.1778 0.0988-0.28152 0.28646-0.10372 0.18768-0.10372 0.43462 0 0.24695 0.10372 0.43462 0.10372 0.18768 0.28152 0.2914 0.1778 0.0988 0.40005 0.0988z" style="font-feature-settings:normal;font-variant-caps:normal;font-variant-ligatures:normal;font-variant-numeric:normal"/>
<path d="m285.72 246.15q-0.40005 0-0.72108-0.17286-0.32102-0.17287-0.50376-0.47908-0.1778-0.31115-0.1778-0.70132t0.1778-0.69638q0.18274-0.30621 0.50376-0.47907 0.32103-0.17287 0.72108-0.17287 0.40499 0 0.72602 0.17287 0.32103 0.17286 0.49883 0.47907 0.18274 0.30621 0.18274 0.69638t-0.18274 0.70132q-0.1778 0.30621-0.49883 0.47908-0.32103 0.17286-0.72602 0.17286zm0-0.52846q0.34079 0 0.56304-0.22719t0.22225-0.59761-0.22225-0.5976q-0.22225-0.22719-0.56304-0.22719-0.34078 0-0.56303 0.22719-0.21731 0.22718-0.21731 0.5976t0.21731 0.59761q0.22225 0.22719 0.56303 0.22719z" style="font-feature-settings:normal;font-variant-caps:normal;font-variant-ligatures:normal;font-variant-numeric:normal"/>
<path d="m291.97 245.33h-0.61242v0.78528h-0.6223v-0.78528h-1.8965v-0.4445l1.7039-2.2274h0.68651l-1.6051 2.1287h1.131v-0.69638h0.60255v0.69638h0.61242z" style="font-feature-settings:normal;font-variant-caps:normal;font-variant-ligatures:normal;font-variant-numeric:normal"/>
</g>
</g>
<path d="m111.36 241.54-1e-4 58.362" fill="none" stroke="#242424" stroke-linecap="round" stroke-linejoin="round" stroke-width=".52917"/>
</g>
</svg>
