<svg version="1.1" viewBox="0 0 350.38045 31.86876" xmlns="http://www.w3.org/2000/svg" xmlns:cc="http://creativecommons.org/ns#" xmlns:dc="http://purl.org/dc/elements/1.1/" xmlns:rdf="http://www.w3.org/1999/02/22-rdf-syntax-ns#">
<title>Identify git Branches with Antora</title>
<metadata>
<rdf:RDF>
<cc:Work rdf:about="">
<dc:format>image/svg+xml</dc:format>
<dc:type rdf:resource="http://purl.org/dc/dcmitype/StillImage"/>
<dc:title>Identify git Branches with Antora</dc:title>
<dc:creator>
<cc:Agent>
<dc:title>Sarah White</dc:title>
</cc:Agent>
</dc:creator>
<dc:publisher>
<cc:Agent>
<dc:title>OpenDevise Inc.</dc:title>
</cc:Agent>
</dc:publisher>
<dc:subject>
<rdf:Bag>
<rdf:li>Antora</rdf:li>
<rdf:li>git</rdf:li>
<rdf:li>version</rdf:li>
</rdf:Bag>
</dc:subject>
<cc:license rdf:resource="http://creativecommons.org/licenses/by-sa/4.0/"/>
</cc:Work>
<cc:License rdf:about="http://creativecommons.org/licenses/by-sa/4.0/">
<cc:permits rdf:resource="http://creativecommons.org/ns#Reproduction"/>
<cc:permits rdf:resource="http://creativecommons.org/ns#Distribution"/>
<cc:requires rdf:resource="http://creativecommons.org/ns#Notice"/>
<cc:requires rdf:resource="http://creativecommons.org/ns#Attribution"/>
<cc:permits rdf:resource="http://creativecommons.org/ns#DerivativeWorks"/>
<cc:requires rdf:resource="http://creativecommons.org/ns#ShareAlike"/>
</cc:License>
</rdf:RDF>
</metadata>
<rect width="100%" height="100%" fill="#fff"/>
<g transform="translate(0 -265.13)">
<g fill="#242424" stroke-width=".0727px" style="font-feature-settings:normal;font-variant-caps:normal;font-variant-ligatures:normal;font-variant-numeric:normal" aria-label="IDENTIFY BRANCHES">
<path d="m23.99 273.84h0.70556v4.9389h-0.70556z" style="font-feature-settings:normal;font-variant-caps:normal;font-variant-ligatures:normal;font-variant-numeric:normal"/>
<path d="m26.181 273.84h2.0814q0.78317 0 1.3899 0.31045 0.60678 0.31044 0.93839 0.87488 0.33867 0.55739 0.33867 1.2841 0 0.72672-0.33867 1.2912-0.33161 0.55739-0.93839 0.86784-0.60678 0.31044-1.3899 0.31044h-2.0814zm2.0391 4.3251q0.59972 0 1.0513-0.23284 0.45861-0.23283 0.70556-0.64911 0.24694-0.42333 0.24694-0.97366 0-0.55034-0.24694-0.96662-0.24694-0.42333-0.70556-0.65616-0.45156-0.23284-1.0513-0.23284h-1.3335v3.7112z" style="font-feature-settings:normal;font-variant-caps:normal;font-variant-ligatures:normal;font-variant-numeric:normal"/>
<path d="m35.594 278.17v0.61383h-3.5842v-4.9389h3.4854v0.61383h-2.7799v1.517h2.4765v0.59972h-2.4765v1.5946z" style="font-feature-settings:normal;font-variant-caps:normal;font-variant-ligatures:normal;font-variant-numeric:normal"/>
<path d="m40.984 273.84v4.9389h-0.57856l-2.9633-3.683v3.683h-0.70556v-4.9389h0.57856l2.9633 3.683v-3.683z" style="font-feature-settings:normal;font-variant-caps:normal;font-variant-ligatures:normal;font-variant-numeric:normal"/>
<path d="m43.45 274.46h-1.6933v-0.61383h4.0852v0.61383h-1.6933v4.3251h-0.6985z" style="font-feature-settings:normal;font-variant-caps:normal;font-variant-ligatures:normal;font-variant-numeric:normal"/>
<path d="m46.617 273.84h0.70556v4.9389h-0.70556z" style="font-feature-settings:normal;font-variant-caps:normal;font-variant-ligatures:normal;font-variant-numeric:normal"/>
<path d="m49.514 274.46v1.7216h2.4765v0.60678h-2.4765v1.9967h-0.70556v-4.9389h3.4854v0.61383z" style="font-feature-settings:normal;font-variant-caps:normal;font-variant-ligatures:normal;font-variant-numeric:normal"/>
<path d="m55.178 277.08v1.7074h-0.6985v-1.7216l-1.9614-3.2173h0.75494l1.5804 2.6035 1.5875-2.6035h0.6985z" style="font-feature-settings:normal;font-variant-caps:normal;font-variant-ligatures:normal;font-variant-numeric:normal"/>
<path d="m63.073 276.22q0.43039 0.11995 0.67733 0.43745 0.24694 0.31044 0.24694 0.79022 0 0.64206-0.48683 0.98778-0.47978 0.34572-1.4041 0.34572h-2.3566v-4.9389h2.2154q0.84667 0 1.3053 0.33867 0.46567 0.33866 0.46567 0.93839 0 0.38805-0.18344 0.67027-0.17639 0.28223-0.47978 0.43039zm-2.6176-1.8062v1.5804h1.4464q0.54328 0 0.83256-0.19756 0.29633-0.20461 0.29633-0.59267 0-0.38805-0.29633-0.58561-0.28928-0.20461-0.83256-0.20461zm1.6228 3.7959q0.59972 0 0.90311-0.19756 0.30339-0.19755 0.30339-0.62088 0-0.8255-1.2065-0.8255h-1.6228v1.6439z" style="font-feature-settings:normal;font-variant-caps:normal;font-variant-ligatures:normal;font-variant-numeric:normal"/>
<path d="m68.399 278.78-1.0654-1.5169q-0.19756 0.0141-0.31044 0.0141h-1.2206v1.5028h-0.70556v-4.9389h1.9262q0.95956 0 1.5099 0.45861 0.55033 0.45861 0.55033 1.263 0 0.5715-0.28222 0.97366-0.28222 0.40217-0.80433 0.58561l1.1712 1.6581zm-1.397-2.1026q0.67028 0 1.0231-0.28927 0.35278-0.28928 0.35278-0.8255 0-0.53623-0.35278-0.81845-0.35278-0.28928-1.0231-0.28928h-1.1994v2.2225z" style="font-feature-settings:normal;font-variant-caps:normal;font-variant-ligatures:normal;font-variant-numeric:normal"/>
<path d="m73.37 277.55h-2.6247l-0.54328 1.2347h-0.72672l2.2366-4.9389h0.6985l2.2437 4.9389h-0.74083zm-0.24694-0.56445-1.0654-2.42-1.0654 2.42z" style="font-feature-settings:normal;font-variant-caps:normal;font-variant-ligatures:normal;font-variant-numeric:normal"/>
<path d="m79.638 273.84v4.9389h-0.57856l-2.9633-3.683v3.683h-0.70556v-4.9389h0.57856l2.9633 3.683v-3.683z" style="font-feature-settings:normal;font-variant-caps:normal;font-variant-ligatures:normal;font-variant-numeric:normal"/>
<path d="m83.332 278.84q-0.74083 0-1.3406-0.32455-0.59267-0.33161-0.93133-0.90311-0.33867-0.57856-0.33867-1.2982 0-0.71967 0.33867-1.2912 0.33867-0.57856 0.93839-0.90311 0.59972-0.33161 1.3406-0.33161 0.57856 0 1.0583 0.19755 0.47978 0.1905 0.81844 0.5715l-0.45861 0.4445q-0.55739-0.58561-1.3899-0.58561-0.55033 0-0.99483 0.24695-0.4445 0.24694-0.6985 0.68438-0.24694 0.43039-0.24694 0.96662 0 0.53622 0.24694 0.97366 0.254 0.43039 0.6985 0.67734 0.4445 0.24694 0.99483 0.24694 0.8255 0 1.3899-0.59267l0.45861 0.4445q-0.33867 0.381-0.8255 0.57856-0.47978 0.19755-1.0583 0.19755z" style="font-feature-settings:normal;font-variant-caps:normal;font-variant-ligatures:normal;font-variant-numeric:normal"/>
<path d="m90.47 273.84v4.9389h-0.70556v-2.2013h-2.8363v2.2013h-0.70556v-4.9389h0.70556v2.1237h2.8363v-2.1237z" style="font-feature-settings:normal;font-variant-caps:normal;font-variant-ligatures:normal;font-variant-numeric:normal"/>
<path d="m95.539 278.17v0.61383h-3.5842v-4.9389h3.4854v0.61383h-2.7799v1.517h2.4765v0.59972h-2.4765v1.5946z" style="font-feature-settings:normal;font-variant-caps:normal;font-variant-ligatures:normal;font-variant-numeric:normal"/>
<path d="m98.121 278.84q-0.55739 0-1.0795-0.16933-0.51506-0.17639-0.81139-0.45155l0.26106-0.55034q0.28222 0.254 0.71967 0.41628 0.4445 0.15522 0.91017 0.15522 0.61383 0 0.91722-0.20461 0.30339-0.21167 0.30339-0.55739 0-0.254-0.16933-0.40922-0.16228-0.16228-0.40922-0.24694-0.23989-0.0847-0.68439-0.1905-0.55739-0.13406-0.90311-0.26812-0.33867-0.13405-0.58561-0.40922-0.23989-0.28222-0.23989-0.75494 0-0.39511 0.20461-0.71261 0.21167-0.3175 0.635-0.508 0.42333-0.1905 1.0513-0.1905 0.43744 0 0.86078 0.11289 0.42333 0.11288 0.72672 0.32455l-0.23283 0.56445q-0.31044-0.19756-0.66322-0.29634-0.35278-0.10583-0.69144-0.10583-0.59972 0-0.90311 0.21872-0.29633 0.21872-0.29633 0.56445 0 0.254 0.16933 0.41627 0.16933 0.15523 0.41628 0.24695 0.254 0.0847 0.68439 0.18344 0.55739 0.13406 0.89606 0.26811 0.33867 0.13406 0.57856 0.40923 0.24694 0.27516 0.24694 0.74083 0 0.38805-0.21167 0.71261-0.21167 0.3175-0.64206 0.508-0.43039 0.18344-1.0583 0.18344z" style="font-feature-settings:normal;font-variant-caps:normal;font-variant-ligatures:normal;font-variant-numeric:normal"/>
</g>
<g transform="translate(-3.7042 223.2)" stroke="#242424" stroke-linecap="round">
<ellipse cx="13.232" cy="53.112" rx="5.4091" ry="5.0987" fill="#fff" stroke-dashoffset="72" stroke-linejoin="round" stroke-width=".52917"/>
<path d="m15.158 53.112c0 1.0784-0.8626 1.9526-1.9267 1.9526-1.0641 0-1.9267-0.87422-1.9267-1.9526 0-1.0784 0.8626-1.9526 1.9267-1.9526" fill="#fff" stroke-dashoffset="72" stroke-linejoin="round" stroke-width=".79375"/>
<path d="m4.105 53.005c6.3558-6.5996 12.421-6.1302 18.254 0" fill="none" stroke-width=".79375"/>
</g>
<g fill="#242424">
<g stroke-width=".0727px">
<g style="font-feature-settings:normal;font-variant-caps:normal;font-variant-ligatures:normal;font-variant-numeric:normal" aria-label="Component A">
<path d="m97.545 296.09q-0.52352 0-0.94827-0.22719-0.41981-0.23213-0.66181-0.63712-0.23707-0.40499-0.23707-0.91369 0-0.50871 0.24201-0.9137 0.242-0.40498 0.66181-0.63217 0.42474-0.23213 0.94827-0.23213 0.42474 0 0.77541 0.14817 0.35066 0.14816 0.59267 0.42968l-0.41487 0.39017q-0.37536-0.40499-0.92357-0.40499-0.3556 0-0.63712 0.15805-0.28152 0.1531-0.43956 0.42968t-0.15804 0.62724 0.15804 0.62724 0.43956 0.43462q0.28152 0.15311 0.63712 0.15311 0.54822 0 0.92357-0.40993l0.41487 0.39511q-0.24201 0.28152-0.59761 0.42968-0.35066 0.14817-0.7754 0.14817z" style="font-feature-settings:normal;font-variant-caps:normal;font-variant-ligatures:normal;font-variant-numeric:normal"/>
<path d="m100.56 296.08q-0.40005 0-0.72107-0.17286-0.32103-0.17286-0.50377-0.47907-0.1778-0.31115-0.1778-0.70132 0-0.39018 0.1778-0.69639 0.18274-0.30621 0.50377-0.47907 0.32102-0.17286 0.72107-0.17286 0.40499 0 0.72602 0.17286t0.49883 0.47907q0.18274 0.30621 0.18274 0.69639 0 0.39017-0.18274 0.70132-0.1778 0.30621-0.49883 0.47907t-0.72602 0.17286zm0-0.52846q0.34079 0 0.56304-0.22719t0.22225-0.5976q0-0.37042-0.22225-0.59761t-0.56304-0.22719q-0.34078 0-0.56303 0.22719-0.21731 0.22719-0.21731 0.59761 0 0.37041 0.21731 0.5976 0.22225 0.22719 0.56303 0.22719z" style="font-feature-settings:normal;font-variant-caps:normal;font-variant-ligatures:normal;font-variant-numeric:normal"/>
<path d="m105.89 293.37q0.49883 0 0.79022 0.29139 0.2914 0.28646 0.2914 0.86431v1.5113h-0.61736v-1.4323q0-0.34572-0.15311-0.51858-0.15311-0.1778-0.43956-0.1778-0.31115 0-0.49883 0.20743-0.18768 0.2025-0.18768 0.58279v1.3384h-0.61736v-1.4323q0-0.34572-0.1531-0.51858-0.15311-0.1778-0.43956-0.1778-0.31609 0-0.50377 0.20249-0.18274 0.2025-0.18274 0.58773v1.3384h-0.61736v-2.6374h0.58773v0.33585q0.14816-0.1778 0.37041-0.27164 0.22225-0.0938 0.49389-0.0938 0.29634 0 0.52352 0.11359 0.23213 0.10866 0.36548 0.32597 0.16299-0.20743 0.41981-0.32103 0.25682-0.11853 0.56797-0.11853z" style="font-feature-settings:normal;font-variant-caps:normal;font-variant-ligatures:normal;font-variant-numeric:normal"/>
<path d="m109.22 293.37q0.38523 0 0.6865 0.16792 0.30622 0.16792 0.47908 0.47414 0.17286 0.30621 0.17286 0.70626t-0.17286 0.7112q-0.17286 0.30621-0.47908 0.47413-0.30127 0.16792-0.6865 0.16792-0.5334 0-0.84455-0.3556v1.2792h-0.61736v-3.5955h0.58773v0.34573q0.1531-0.18768 0.37535-0.28152 0.22719-0.0938 0.49883-0.0938zm-0.0691 2.1731q0.34079 0 0.5581-0.22719 0.22225-0.22719 0.22225-0.5976 0-0.37042-0.22225-0.59761-0.21731-0.22719-0.5581-0.22719-0.22225 0-0.40005 0.10372-0.1778 0.0988-0.28151 0.28645-0.10372 0.18768-0.10372 0.43463 0 0.24694 0.10372 0.43462 0.10371 0.18768 0.28151 0.29139 0.1778 0.0988 0.40005 0.0988z" style="font-feature-settings:normal;font-variant-caps:normal;font-variant-ligatures:normal;font-variant-numeric:normal"/>
<path d="m112.33 296.08q-0.40005 0-0.72108-0.17286t-0.50376-0.47907q-0.1778-0.31115-0.1778-0.70132 0-0.39018 0.1778-0.69639 0.18273-0.30621 0.50376-0.47907t0.72108-0.17286q0.40499 0 0.72602 0.17286 0.32102 0.17286 0.49882 0.47907 0.18274 0.30621 0.18274 0.69639 0 0.39017-0.18274 0.70132-0.1778 0.30621-0.49882 0.47907-0.32103 0.17286-0.72602 0.17286zm0-0.52846q0.34078 0 0.56303-0.22719t0.22225-0.5976q0-0.37042-0.22225-0.59761t-0.56303-0.22719-0.56303 0.22719q-0.21731 0.22719-0.21731 0.59761 0 0.37041 0.21731 0.5976 0.22225 0.22719 0.56303 0.22719z" style="font-feature-settings:normal;font-variant-caps:normal;font-variant-ligatures:normal;font-variant-numeric:normal"/>
<path d="m115.83 293.37q0.49883 0 0.8001 0.29139 0.30127 0.2914 0.30127 0.86431v1.5113h-0.61736v-1.4323q0-0.34572-0.16298-0.51858-0.16299-0.1778-0.46426-0.1778-0.34078 0-0.53834 0.20743-0.19755 0.2025-0.19755 0.58773v1.3335h-0.61736v-2.6374h0.58772v0.34079q0.15311-0.18274 0.38524-0.27658 0.23213-0.0938 0.52352-0.0938z" style="font-feature-settings:normal;font-variant-caps:normal;font-variant-ligatures:normal;font-variant-numeric:normal"/>
<path d="m120.22 294.74q0 0.0642-0.01 0.18274h-2.0694q0.0543 0.2914 0.28152 0.46426 0.23213 0.16792 0.57291 0.16792 0.43462 0 0.71614-0.28646l0.33091 0.3803q-0.1778 0.21237-0.44944 0.32103-0.27164 0.10865-0.61242 0.10865-0.43463 0-0.76553-0.17286-0.33091-0.17286-0.51365-0.47907-0.1778-0.31115-0.1778-0.70132 0-0.38524 0.17286-0.69145 0.1778-0.31115 0.48895-0.48401t0.70133-0.17286q0.38523 0 0.6865 0.17286 0.30621 0.16792 0.47414 0.47907 0.17286 0.30621 0.17286 0.7112zm-1.3335-0.86924q-0.29634 0-0.50377 0.1778-0.20249 0.17286-0.24694 0.46425h1.4965q-0.0395-0.28645-0.24201-0.46425-0.20249-0.1778-0.50376-0.1778z" style="font-feature-settings:normal;font-variant-caps:normal;font-variant-ligatures:normal;font-variant-numeric:normal"/>
<path d="m122.31 293.37q0.49883 0 0.8001 0.29139 0.30127 0.2914 0.30127 0.86431v1.5113h-0.61736v-1.4323q0-0.34572-0.16298-0.51858-0.16299-0.1778-0.46426-0.1778-0.34078 0-0.53834 0.20743-0.19755 0.2025-0.19755 0.58773v1.3335h-0.61736v-2.6374h0.58772v0.34079q0.15311-0.18274 0.38524-0.27658 0.23213-0.0938 0.52352-0.0938z" style="font-feature-settings:normal;font-variant-caps:normal;font-variant-ligatures:normal;font-variant-numeric:normal"/>
<path d="m125.78 295.9q-0.10865 0.0889-0.2667 0.13335-0.1531 0.0444-0.32597 0.0444-0.43462 0-0.67168-0.22719-0.23707-0.22719-0.23707-0.66181v-1.2693h-0.43462v-0.49389h0.43462v-0.60255h0.61736v0.60255h0.70626v0.49389h-0.70626v1.2545q0 0.19261 0.0938 0.29633 0.0938 0.0988 0.27164 0.0988 0.20743 0 0.34572-0.10866z" style="font-feature-settings:normal;font-variant-caps:normal;font-variant-ligatures:normal;font-variant-numeric:normal"/>
<path d="m129.95 295.24h-1.7286l-0.34078 0.8001h-0.66181l1.5558-3.4572h0.63218l1.5607 3.4572h-0.67168zm-0.21237-0.50377-0.65193-1.5113-0.647 1.5113z" style="font-feature-settings:normal;font-variant-caps:normal;font-variant-ligatures:normal;font-variant-numeric:normal"/>
</g>
<g style="font-feature-settings:normal;font-variant-caps:normal;font-variant-ligatures:normal;font-variant-numeric:normal" aria-label="Component D">
<path d="m316.82 296.09q-0.52352 0-0.94826-0.22719-0.41981-0.23213-0.66182-0.63712-0.23706-0.40499-0.23706-0.91369 0-0.50871 0.242-0.9137 0.24201-0.40498 0.66181-0.63217 0.42475-0.23213 0.94827-0.23213 0.42475 0 0.77541 0.14817 0.35066 0.14816 0.59266 0.42968l-0.41486 0.39017q-0.37536-0.40499-0.92358-0.40499-0.3556 0-0.63711 0.15805-0.28152 0.1531-0.43956 0.42968-0.15805 0.27658-0.15805 0.62724t0.15805 0.62724q0.15804 0.27658 0.43956 0.43462 0.28151 0.15311 0.63711 0.15311 0.54822 0 0.92358-0.40993l0.41486 0.39511q-0.242 0.28152-0.5976 0.42968-0.35066 0.14817-0.77541 0.14817z" style="font-feature-settings:normal;font-variant-caps:normal;font-variant-ligatures:normal;font-variant-numeric:normal"/>
<path d="m319.84 296.08q-0.40005 0-0.72108-0.17286t-0.50377-0.47907q-0.1778-0.31115-0.1778-0.70132 0-0.39018 0.1778-0.69639 0.18274-0.30621 0.50377-0.47907t0.72108-0.17286q0.40499 0 0.72601 0.17286 0.32103 0.17286 0.49883 0.47907 0.18274 0.30621 0.18274 0.69639 0 0.39017-0.18274 0.70132-0.1778 0.30621-0.49883 0.47907-0.32102 0.17286-0.72601 0.17286zm0-0.52846q0.34078 0 0.56303-0.22719t0.22225-0.5976q0-0.37042-0.22225-0.59761t-0.56303-0.22719q-0.34079 0-0.56304 0.22719-0.21731 0.22719-0.21731 0.59761 0 0.37041 0.21731 0.5976 0.22225 0.22719 0.56304 0.22719z" style="font-feature-settings:normal;font-variant-caps:normal;font-variant-ligatures:normal;font-variant-numeric:normal"/>
<path d="m325.16 293.37q0.49883 0 0.79023 0.29139 0.29139 0.28646 0.29139 0.86431v1.5113h-0.61736v-1.4323q0-0.34572-0.15311-0.51858-0.1531-0.1778-0.43956-0.1778-0.31115 0-0.49882 0.20743-0.18768 0.2025-0.18768 0.58279v1.3384h-0.61736v-1.4323q0-0.34572-0.15311-0.51858-0.1531-0.1778-0.43956-0.1778-0.31609 0-0.50377 0.20249-0.18274 0.2025-0.18274 0.58773v1.3384h-0.61736v-2.6374h0.58773v0.33585q0.14817-0.1778 0.37042-0.27164 0.22225-0.0938 0.49389-0.0938 0.29633 0 0.52352 0.11359 0.23213 0.10866 0.36548 0.32597 0.16298-0.20743 0.4198-0.32103 0.25682-0.11853 0.56797-0.11853z" style="font-feature-settings:normal;font-variant-caps:normal;font-variant-ligatures:normal;font-variant-numeric:normal"/>
<path d="m328.49 293.37q0.38524 0 0.68651 0.16792 0.30621 0.16792 0.47907 0.47414 0.17286 0.30621 0.17286 0.70626t-0.17286 0.7112q-0.17286 0.30621-0.47907 0.47413-0.30127 0.16792-0.68651 0.16792-0.5334 0-0.84455-0.3556v1.2792h-0.61736v-3.5955h0.58773v0.34573q0.1531-0.18768 0.37535-0.28152 0.22719-0.0938 0.49883-0.0938zm-0.0691 2.1731q0.34078 0 0.55809-0.22719 0.22225-0.22719 0.22225-0.5976 0-0.37042-0.22225-0.59761-0.21731-0.22719-0.55809-0.22719-0.22225 0-0.40005 0.10372-0.1778 0.0988-0.28152 0.28645-0.10372 0.18768-0.10372 0.43463 0 0.24694 0.10372 0.43462t0.28152 0.29139q0.1778 0.0988 0.40005 0.0988z" style="font-feature-settings:normal;font-variant-caps:normal;font-variant-ligatures:normal;font-variant-numeric:normal"/>
<path d="m331.6 296.08q-0.40005 0-0.72107-0.17286-0.32103-0.17286-0.50377-0.47907-0.1778-0.31115-0.1778-0.70132 0-0.39018 0.1778-0.69639 0.18274-0.30621 0.50377-0.47907 0.32102-0.17286 0.72107-0.17286 0.40499 0 0.72602 0.17286t0.49883 0.47907q0.18274 0.30621 0.18274 0.69639 0 0.39017-0.18274 0.70132-0.1778 0.30621-0.49883 0.47907t-0.72602 0.17286zm0-0.52846q0.34079 0 0.56304-0.22719t0.22225-0.5976q0-0.37042-0.22225-0.59761t-0.56304-0.22719q-0.34078 0-0.56303 0.22719-0.21731 0.22719-0.21731 0.59761 0 0.37041 0.21731 0.5976 0.22225 0.22719 0.56303 0.22719z" style="font-feature-settings:normal;font-variant-caps:normal;font-variant-ligatures:normal;font-variant-numeric:normal"/>
<path d="m335.1 293.37q0.49883 0 0.8001 0.29139 0.30128 0.2914 0.30128 0.86431v1.5113h-0.61737v-1.4323q0-0.34572-0.16298-0.51858-0.16298-0.1778-0.46425-0.1778-0.34079 0-0.53834 0.20743-0.19756 0.2025-0.19756 0.58773v1.3335h-0.61736v-2.6374h0.58773v0.34079q0.1531-0.18274 0.38523-0.27658 0.23213-0.0938 0.52352-0.0938z" style="font-feature-settings:normal;font-variant-caps:normal;font-variant-ligatures:normal;font-variant-numeric:normal"/>
<path d="m339.5 294.74q0 0.0642-0.01 0.18274h-2.0694q0.0543 0.2914 0.28151 0.46426 0.23213 0.16792 0.57292 0.16792 0.43462 0 0.71613-0.28646l0.33091 0.3803q-0.1778 0.21237-0.44944 0.32103-0.27164 0.10865-0.61242 0.10865-0.43462 0-0.76553-0.17286-0.3309-0.17286-0.51364-0.47907-0.1778-0.31115-0.1778-0.70132 0-0.38524 0.17286-0.69145 0.1778-0.31115 0.48895-0.48401t0.70132-0.17286q0.38523 0 0.68651 0.17286 0.30621 0.16792 0.47413 0.47907 0.17286 0.30621 0.17286 0.7112zm-1.3335-0.86924q-0.29633 0-0.50377 0.1778-0.20249 0.17286-0.24694 0.46425h1.4965q-0.0395-0.28645-0.242-0.46425t-0.50377-0.1778z" style="font-feature-settings:normal;font-variant-caps:normal;font-variant-ligatures:normal;font-variant-numeric:normal"/>
<path d="m341.58 293.37q0.49883 0 0.8001 0.29139 0.30128 0.2914 0.30128 0.86431v1.5113h-0.61736v-1.4323q0-0.34572-0.16299-0.51858-0.16298-0.1778-0.46425-0.1778-0.34079 0-0.53834 0.20743-0.19756 0.2025-0.19756 0.58773v1.3335h-0.61736v-2.6374h0.58773v0.34079q0.1531-0.18274 0.38523-0.27658 0.23213-0.0938 0.52352-0.0938z" style="font-feature-settings:normal;font-variant-caps:normal;font-variant-ligatures:normal;font-variant-numeric:normal"/>
<path d="m345.06 295.9q-0.10866 0.0889-0.2667 0.13335-0.15311 0.0444-0.32597 0.0444-0.43462 0-0.67169-0.22719t-0.23707-0.66181v-1.2693h-0.43462v-0.49389h0.43462v-0.60255h0.61736v0.60255h0.70627v0.49389h-0.70627v1.2545q0 0.19261 0.0938 0.29633 0.0938 0.0988 0.27164 0.0988 0.20744 0 0.34572-0.10866z" style="font-feature-settings:normal;font-variant-caps:normal;font-variant-ligatures:normal;font-variant-numeric:normal"/>
<path d="m346.98 292.58h1.5113q0.55316 0 0.98284 0.21731 0.42968 0.21237 0.66675 0.60748 0.23707 0.39017 0.23707 0.90382 0 0.51364-0.23707 0.90875-0.23707 0.39018-0.66675 0.60749-0.42968 0.21237-0.98284 0.21237h-1.5113zm1.4817 2.9139q0.38029 0 0.66675-0.14323 0.29139-0.14816 0.4445-0.41486 0.15804-0.27164 0.15804-0.62724t-0.15804-0.6223q-0.15311-0.27164-0.4445-0.41487-0.28646-0.14816-0.66675-0.14816h-0.83961v2.3707z" style="font-feature-settings:normal;font-variant-caps:normal;font-variant-ligatures:normal;font-variant-numeric:normal"/>
</g>
<g style="font-feature-settings:normal;font-variant-caps:normal;font-variant-ligatures:normal;font-variant-numeric:normal" aria-label="Component B">
<path d="m207.35 296.09q-0.52352 0-0.94827-0.22719-0.4198-0.23213-0.66181-0.63712-0.23706-0.40499-0.23706-0.91369 0-0.50871 0.242-0.9137 0.24201-0.40498 0.66181-0.63217 0.42475-0.23213 0.94827-0.23213 0.42474 0 0.77541 0.14817 0.35066 0.14816 0.59266 0.42968l-0.41486 0.39017q-0.37536-0.40499-0.92358-0.40499-0.3556 0-0.63711 0.15805-0.28152 0.1531-0.43956 0.42968-0.15805 0.27658-0.15805 0.62724t0.15805 0.62724q0.15804 0.27658 0.43956 0.43462 0.28151 0.15311 0.63711 0.15311 0.54822 0 0.92358-0.40993l0.41486 0.39511q-0.242 0.28152-0.5976 0.42968-0.35066 0.14817-0.77541 0.14817z" style="font-feature-settings:normal;font-variant-caps:normal;font-variant-ligatures:normal;font-variant-numeric:normal"/>
<path d="m210.36 296.08q-0.40005 0-0.72108-0.17286t-0.50377-0.47907q-0.1778-0.31115-0.1778-0.70132 0-0.39018 0.1778-0.69639 0.18274-0.30621 0.50377-0.47907t0.72108-0.17286q0.40499 0 0.72601 0.17286 0.32103 0.17286 0.49883 0.47907 0.18274 0.30621 0.18274 0.69639 0 0.39017-0.18274 0.70132-0.1778 0.30621-0.49883 0.47907-0.32102 0.17286-0.72601 0.17286zm0-0.52846q0.34078 0 0.56303-0.22719t0.22225-0.5976q0-0.37042-0.22225-0.59761t-0.56303-0.22719q-0.34079 0-0.56304 0.22719-0.21731 0.22719-0.21731 0.59761 0 0.37041 0.21731 0.5976 0.22225 0.22719 0.56304 0.22719z" style="font-feature-settings:normal;font-variant-caps:normal;font-variant-ligatures:normal;font-variant-numeric:normal"/>
<path d="m215.69 293.37q0.49883 0 0.79022 0.29139 0.2914 0.28646 0.2914 0.86431v1.5113h-0.61736v-1.4323q0-0.34572-0.15311-0.51858-0.1531-0.1778-0.43956-0.1778-0.31115 0-0.49883 0.20743-0.18767 0.2025-0.18767 0.58279v1.3384h-0.61737v-1.4323q0-0.34572-0.1531-0.51858-0.15311-0.1778-0.43956-0.1778-0.31609 0-0.50377 0.20249-0.18274 0.2025-0.18274 0.58773v1.3384h-0.61736v-2.6374h0.58773v0.33585q0.14817-0.1778 0.37042-0.27164 0.22225-0.0938 0.49388-0.0938 0.29634 0 0.52353 0.11359 0.23212 0.10866 0.36547 0.32597 0.16299-0.20743 0.41981-0.32103 0.25682-0.11853 0.56797-0.11853z" style="font-feature-settings:normal;font-variant-caps:normal;font-variant-ligatures:normal;font-variant-numeric:normal"/>
<path d="m219.02 293.37q0.38523 0 0.68651 0.16792 0.30621 0.16792 0.47907 0.47414 0.17286 0.30621 0.17286 0.70626t-0.17286 0.7112q-0.17286 0.30621-0.47907 0.47413-0.30128 0.16792-0.68651 0.16792-0.5334 0-0.84455-0.3556v1.2792h-0.61736v-3.5955h0.58773v0.34573q0.1531-0.18768 0.37535-0.28152 0.22719-0.0938 0.49883-0.0938zm-0.0691 2.1731q0.34078 0 0.55809-0.22719 0.22225-0.22719 0.22225-0.5976 0-0.37042-0.22225-0.59761-0.21731-0.22719-0.55809-0.22719-0.22225 0-0.40005 0.10372-0.1778 0.0988-0.28152 0.28645-0.10372 0.18768-0.10372 0.43463 0 0.24694 0.10372 0.43462t0.28152 0.29139q0.1778 0.0988 0.40005 0.0988z" style="font-feature-settings:normal;font-variant-caps:normal;font-variant-ligatures:normal;font-variant-numeric:normal"/>
<path d="m222.13 296.08q-0.40005 0-0.72108-0.17286-0.32102-0.17286-0.50376-0.47907-0.1778-0.31115-0.1778-0.70132 0-0.39018 0.1778-0.69639 0.18274-0.30621 0.50376-0.47907 0.32103-0.17286 0.72108-0.17286 0.40499 0 0.72602 0.17286t0.49883 0.47907q0.18274 0.30621 0.18274 0.69639 0 0.39017-0.18274 0.70132-0.1778 0.30621-0.49883 0.47907t-0.72602 0.17286zm0-0.52846q0.34079 0 0.56304-0.22719t0.22225-0.5976q0-0.37042-0.22225-0.59761t-0.56304-0.22719q-0.34078 0-0.56303 0.22719-0.21731 0.22719-0.21731 0.59761 0 0.37041 0.21731 0.5976 0.22225 0.22719 0.56303 0.22719z" style="font-feature-settings:normal;font-variant-caps:normal;font-variant-ligatures:normal;font-variant-numeric:normal"/>
<path d="m225.63 293.37q0.49883 0 0.8001 0.29139 0.30127 0.2914 0.30127 0.86431v1.5113h-0.61736v-1.4323q0-0.34572-0.16298-0.51858-0.16298-0.1778-0.46426-0.1778-0.34078 0-0.53833 0.20743-0.19756 0.2025-0.19756 0.58773v1.3335h-0.61736v-2.6374h0.58773v0.34079q0.1531-0.18274 0.38523-0.27658 0.23213-0.0938 0.52352-0.0938z" style="font-feature-settings:normal;font-variant-caps:normal;font-variant-ligatures:normal;font-variant-numeric:normal"/>
<path d="m230.02 294.74q0 0.0642-0.01 0.18274h-2.0694q0.0543 0.2914 0.28151 0.46426 0.23213 0.16792 0.57291 0.16792 0.43463 0 0.71614-0.28646l0.33091 0.3803q-0.1778 0.21237-0.44944 0.32103-0.27164 0.10865-0.61242 0.10865-0.43462 0-0.76553-0.17286t-0.51364-0.47907q-0.1778-0.31115-0.1778-0.70132 0-0.38524 0.17286-0.69145 0.1778-0.31115 0.48895-0.48401t0.70132-0.17286q0.38523 0 0.6865 0.17286 0.30622 0.16792 0.47414 0.47907 0.17286 0.30621 0.17286 0.7112zm-1.3335-0.86924q-0.29633 0-0.50377 0.1778-0.20249 0.17286-0.24694 0.46425h1.4965q-0.0395-0.28645-0.242-0.46425t-0.50377-0.1778z" style="font-feature-settings:normal;font-variant-caps:normal;font-variant-ligatures:normal;font-variant-numeric:normal"/>
<path d="m232.11 293.37q0.49883 0 0.8001 0.29139 0.30127 0.2914 0.30127 0.86431v1.5113h-0.61736v-1.4323q0-0.34572-0.16298-0.51858-0.16298-0.1778-0.46426-0.1778-0.34078 0-0.53833 0.20743-0.19756 0.2025-0.19756 0.58773v1.3335h-0.61736v-2.6374h0.58773v0.34079q0.1531-0.18274 0.38523-0.27658 0.23213-0.0938 0.52352-0.0938z" style="font-feature-settings:normal;font-variant-caps:normal;font-variant-ligatures:normal;font-variant-numeric:normal"/>
<path d="m235.58 295.9q-0.10865 0.0889-0.2667 0.13335-0.1531 0.0444-0.32596 0.0444-0.43463 0-0.67169-0.22719-0.23707-0.22719-0.23707-0.66181v-1.2693h-0.43462v-0.49389h0.43462v-0.60255h0.61736v0.60255h0.70626v0.49389h-0.70626v1.2545q0 0.19261 0.0938 0.29633 0.0938 0.0988 0.27164 0.0988 0.20743 0 0.34572-0.10866z" style="font-feature-settings:normal;font-variant-caps:normal;font-variant-ligatures:normal;font-variant-numeric:normal"/>
<path d="m239.96 294.24q0.28645 0.0938 0.45438 0.31609 0.16792 0.21731 0.16792 0.54328 0 0.44944-0.34572 0.69638-0.34573 0.24201-1.0075 0.24201h-1.7187v-3.4572h1.62q0.61242 0 0.94332 0.242 0.33091 0.23707 0.33091 0.65688 0 0.25682-0.11853 0.45437-0.11854 0.19756-0.32597 0.30621zm-1.8076-1.1557v0.95321h0.90875q0.33585 0 0.51365-0.11853 0.18273-0.12348 0.18273-0.3556 0-0.23707-0.18273-0.3556-0.1778-0.12348-0.51365-0.12348zm1.0372 2.4497q0.74577 0 0.74577-0.49882 0-0.49883-0.74577-0.49883h-1.0372v0.99765z" style="font-feature-settings:normal;font-variant-caps:normal;font-variant-ligatures:normal;font-variant-numeric:normal"/>
</g>
<g style="font-feature-settings:normal;font-variant-caps:normal;font-variant-ligatures:normal;font-variant-numeric:normal" aria-label="Component A">
<path d="m152.38 296.09q-0.52352 0-0.94827-0.22719-0.4198-0.23213-0.66181-0.63712-0.23706-0.40499-0.23706-0.91369 0-0.50871 0.242-0.9137 0.24201-0.40498 0.66181-0.63217 0.42475-0.23213 0.94827-0.23213 0.42474 0 0.77541 0.14817 0.35066 0.14816 0.59266 0.42968l-0.41486 0.39017q-0.37536-0.40499-0.92358-0.40499-0.3556 0-0.63711 0.15805-0.28152 0.1531-0.43956 0.42968-0.15805 0.27658-0.15805 0.62724t0.15805 0.62724q0.15804 0.27658 0.43956 0.43462 0.28151 0.15311 0.63711 0.15311 0.54822 0 0.92358-0.40993l0.41486 0.39511q-0.242 0.28152-0.5976 0.42968-0.35066 0.14817-0.77541 0.14817z" style="font-feature-settings:normal;font-variant-caps:normal;font-variant-ligatures:normal;font-variant-numeric:normal"/>
<path d="m155.4 296.08q-0.40005 0-0.72108-0.17286t-0.50377-0.47907q-0.1778-0.31115-0.1778-0.70132 0-0.39018 0.1778-0.69639 0.18274-0.30621 0.50377-0.47907t0.72108-0.17286q0.40499 0 0.72601 0.17286 0.32103 0.17286 0.49883 0.47907 0.18274 0.30621 0.18274 0.69639 0 0.39017-0.18274 0.70132-0.1778 0.30621-0.49883 0.47907-0.32102 0.17286-0.72601 0.17286zm0-0.52846q0.34078 0 0.56303-0.22719t0.22225-0.5976q0-0.37042-0.22225-0.59761t-0.56303-0.22719q-0.34079 0-0.56304 0.22719-0.21731 0.22719-0.21731 0.59761 0 0.37041 0.21731 0.5976 0.22225 0.22719 0.56304 0.22719z" style="font-feature-settings:normal;font-variant-caps:normal;font-variant-ligatures:normal;font-variant-numeric:normal"/>
<path d="m160.73 293.37q0.49883 0 0.79022 0.29139 0.2914 0.28646 0.2914 0.86431v1.5113h-0.61736v-1.4323q0-0.34572-0.15311-0.51858-0.1531-0.1778-0.43956-0.1778-0.31115 0-0.49883 0.20743-0.18767 0.2025-0.18767 0.58279v1.3384h-0.61737v-1.4323q0-0.34572-0.1531-0.51858-0.15311-0.1778-0.43956-0.1778-0.31609 0-0.50377 0.20249-0.18274 0.2025-0.18274 0.58773v1.3384h-0.61736v-2.6374h0.58773v0.33585q0.14817-0.1778 0.37042-0.27164 0.22225-0.0938 0.49388-0.0938 0.29634 0 0.52353 0.11359 0.23212 0.10866 0.36547 0.32597 0.16299-0.20743 0.41981-0.32103 0.25682-0.11853 0.56797-0.11853z" style="font-feature-settings:normal;font-variant-caps:normal;font-variant-ligatures:normal;font-variant-numeric:normal"/>
<path d="m164.06 293.37q0.38523 0 0.68651 0.16792 0.30621 0.16792 0.47907 0.47414 0.17286 0.30621 0.17286 0.70626t-0.17286 0.7112q-0.17286 0.30621-0.47907 0.47413-0.30128 0.16792-0.68651 0.16792-0.5334 0-0.84455-0.3556v1.2792h-0.61736v-3.5955h0.58773v0.34573q0.1531-0.18768 0.37535-0.28152 0.22719-0.0938 0.49883-0.0938zm-0.0691 2.1731q0.34078 0 0.55809-0.22719 0.22225-0.22719 0.22225-0.5976 0-0.37042-0.22225-0.59761-0.21731-0.22719-0.55809-0.22719-0.22225 0-0.40005 0.10372-0.1778 0.0988-0.28152 0.28645-0.10372 0.18768-0.10372 0.43463 0 0.24694 0.10372 0.43462t0.28152 0.29139q0.1778 0.0988 0.40005 0.0988z" style="font-feature-settings:normal;font-variant-caps:normal;font-variant-ligatures:normal;font-variant-numeric:normal"/>
<path d="m167.17 296.08q-0.40005 0-0.72108-0.17286-0.32102-0.17286-0.50376-0.47907-0.1778-0.31115-0.1778-0.70132 0-0.39018 0.1778-0.69639 0.18274-0.30621 0.50376-0.47907 0.32103-0.17286 0.72108-0.17286 0.40499 0 0.72602 0.17286t0.49883 0.47907q0.18274 0.30621 0.18274 0.69639 0 0.39017-0.18274 0.70132-0.1778 0.30621-0.49883 0.47907t-0.72602 0.17286zm0-0.52846q0.34079 0 0.56304-0.22719t0.22225-0.5976q0-0.37042-0.22225-0.59761t-0.56304-0.22719q-0.34078 0-0.56303 0.22719-0.21731 0.22719-0.21731 0.59761 0 0.37041 0.21731 0.5976 0.22225 0.22719 0.56303 0.22719z" style="font-feature-settings:normal;font-variant-caps:normal;font-variant-ligatures:normal;font-variant-numeric:normal"/>
<path d="m170.66 293.37q0.49883 0 0.8001 0.29139 0.30127 0.2914 0.30127 0.86431v1.5113h-0.61736v-1.4323q0-0.34572-0.16298-0.51858-0.16298-0.1778-0.46426-0.1778-0.34078 0-0.53833 0.20743-0.19756 0.2025-0.19756 0.58773v1.3335h-0.61736v-2.6374h0.58773v0.34079q0.1531-0.18274 0.38523-0.27658 0.23213-0.0938 0.52352-0.0938z" style="font-feature-settings:normal;font-variant-caps:normal;font-variant-ligatures:normal;font-variant-numeric:normal"/>
<path d="m175.06 294.74q0 0.0642-0.01 0.18274h-2.0694q0.0543 0.2914 0.28151 0.46426 0.23213 0.16792 0.57291 0.16792 0.43463 0 0.71614-0.28646l0.33091 0.3803q-0.1778 0.21237-0.44944 0.32103-0.27164 0.10865-0.61242 0.10865-0.43462 0-0.76553-0.17286t-0.51364-0.47907q-0.1778-0.31115-0.1778-0.70132 0-0.38524 0.17286-0.69145 0.1778-0.31115 0.48895-0.48401t0.70132-0.17286q0.38523 0 0.6865 0.17286 0.30622 0.16792 0.47414 0.47907 0.17286 0.30621 0.17286 0.7112zm-1.3335-0.86924q-0.29633 0-0.50377 0.1778-0.20249 0.17286-0.24694 0.46425h1.4965q-0.0395-0.28645-0.242-0.46425t-0.50377-0.1778z" style="font-feature-settings:normal;font-variant-caps:normal;font-variant-ligatures:normal;font-variant-numeric:normal"/>
<path d="m177.15 293.37q0.49883 0 0.8001 0.29139 0.30127 0.2914 0.30127 0.86431v1.5113h-0.61736v-1.4323q0-0.34572-0.16298-0.51858-0.16298-0.1778-0.46426-0.1778-0.34078 0-0.53833 0.20743-0.19756 0.2025-0.19756 0.58773v1.3335h-0.61736v-2.6374h0.58773v0.34079q0.1531-0.18274 0.38523-0.27658 0.23213-0.0938 0.52352-0.0938z" style="font-feature-settings:normal;font-variant-caps:normal;font-variant-ligatures:normal;font-variant-numeric:normal"/>
<path d="m180.62 295.9q-0.10865 0.0889-0.2667 0.13335-0.1531 0.0444-0.32596 0.0444-0.43463 0-0.67169-0.22719-0.23707-0.22719-0.23707-0.66181v-1.2693h-0.43462v-0.49389h0.43462v-0.60255h0.61736v0.60255h0.70626v0.49389h-0.70626v1.2545q0 0.19261 0.0938 0.29633 0.0938 0.0988 0.27164 0.0988 0.20743 0 0.34572-0.10866z" style="font-feature-settings:normal;font-variant-caps:normal;font-variant-ligatures:normal;font-variant-numeric:normal"/>
<path d="m184.79 295.24h-1.7286l-0.34079 0.8001h-0.66181l1.5558-3.4572h0.63218l1.5607 3.4572h-0.67169zm-0.21238-0.50377-0.65193-1.5113-0.64699 1.5113z" style="font-feature-settings:normal;font-variant-caps:normal;font-variant-ligatures:normal;font-variant-numeric:normal"/>
</g>
<g style="font-feature-settings:normal;font-variant-caps:normal;font-variant-ligatures:normal;font-variant-numeric:normal" aria-label="Component C">
<path d="m262.26 296.09q-0.52352 0-0.94826-0.22719-0.41981-0.23213-0.66182-0.63712-0.23706-0.40499-0.23706-0.91369 0-0.50871 0.242-0.9137 0.24201-0.40498 0.66181-0.63217 0.42475-0.23213 0.94827-0.23213 0.42475 0 0.77541 0.14817 0.35066 0.14816 0.59266 0.42968l-0.41486 0.39017q-0.37536-0.40499-0.92358-0.40499-0.3556 0-0.63711 0.15805-0.28152 0.1531-0.43956 0.42968-0.15805 0.27658-0.15805 0.62724t0.15805 0.62724q0.15804 0.27658 0.43956 0.43462 0.28151 0.15311 0.63711 0.15311 0.54822 0 0.92358-0.40993l0.41486 0.39511q-0.242 0.28152-0.5976 0.42968-0.35066 0.14817-0.77541 0.14817z" style="font-feature-settings:normal;font-variant-caps:normal;font-variant-ligatures:normal;font-variant-numeric:normal"/>
<path d="m265.27 296.08q-0.40005 0-0.72108-0.17286t-0.50377-0.47907q-0.1778-0.31115-0.1778-0.70132 0-0.39018 0.1778-0.69639 0.18274-0.30621 0.50377-0.47907t0.72108-0.17286q0.40499 0 0.72601 0.17286 0.32103 0.17286 0.49883 0.47907 0.18274 0.30621 0.18274 0.69639 0 0.39017-0.18274 0.70132-0.1778 0.30621-0.49883 0.47907-0.32102 0.17286-0.72601 0.17286zm0-0.52846q0.34078 0 0.56303-0.22719t0.22225-0.5976q0-0.37042-0.22225-0.59761t-0.56303-0.22719q-0.34079 0-0.56304 0.22719-0.21731 0.22719-0.21731 0.59761 0 0.37041 0.21731 0.5976 0.22225 0.22719 0.56304 0.22719z" style="font-feature-settings:normal;font-variant-caps:normal;font-variant-ligatures:normal;font-variant-numeric:normal"/>
<path d="m270.6 293.37q0.49883 0 0.79023 0.29139 0.29139 0.28646 0.29139 0.86431v1.5113h-0.61736v-1.4323q0-0.34572-0.15311-0.51858-0.1531-0.1778-0.43956-0.1778-0.31115 0-0.49882 0.20743-0.18768 0.2025-0.18768 0.58279v1.3384h-0.61736v-1.4323q0-0.34572-0.15311-0.51858-0.1531-0.1778-0.43956-0.1778-0.31609 0-0.50377 0.20249-0.18274 0.2025-0.18274 0.58773v1.3384h-0.61736v-2.6374h0.58773v0.33585q0.14817-0.1778 0.37042-0.27164 0.22225-0.0938 0.49389-0.0938 0.29633 0 0.52352 0.11359 0.23213 0.10866 0.36548 0.32597 0.16298-0.20743 0.4198-0.32103 0.25682-0.11853 0.56797-0.11853z" style="font-feature-settings:normal;font-variant-caps:normal;font-variant-ligatures:normal;font-variant-numeric:normal"/>
<path d="m273.93 293.37q0.38524 0 0.68651 0.16792 0.30621 0.16792 0.47907 0.47414 0.17286 0.30621 0.17286 0.70626t-0.17286 0.7112q-0.17286 0.30621-0.47907 0.47413-0.30127 0.16792-0.68651 0.16792-0.5334 0-0.84455-0.3556v1.2792h-0.61736v-3.5955h0.58773v0.34573q0.1531-0.18768 0.37535-0.28152 0.22719-0.0938 0.49883-0.0938zm-0.0691 2.1731q0.34078 0 0.55809-0.22719 0.22225-0.22719 0.22225-0.5976 0-0.37042-0.22225-0.59761-0.21731-0.22719-0.55809-0.22719-0.22225 0-0.40005 0.10372-0.1778 0.0988-0.28152 0.28645-0.10372 0.18768-0.10372 0.43463 0 0.24694 0.10372 0.43462t0.28152 0.29139q0.1778 0.0988 0.40005 0.0988z" style="font-feature-settings:normal;font-variant-caps:normal;font-variant-ligatures:normal;font-variant-numeric:normal"/>
<path d="m277.04 296.08q-0.40005 0-0.72107-0.17286-0.32103-0.17286-0.50377-0.47907-0.1778-0.31115-0.1778-0.70132 0-0.39018 0.1778-0.69639 0.18274-0.30621 0.50377-0.47907 0.32102-0.17286 0.72107-0.17286 0.40499 0 0.72602 0.17286t0.49883 0.47907q0.18274 0.30621 0.18274 0.69639 0 0.39017-0.18274 0.70132-0.1778 0.30621-0.49883 0.47907t-0.72602 0.17286zm0-0.52846q0.34079 0 0.56304-0.22719t0.22225-0.5976q0-0.37042-0.22225-0.59761t-0.56304-0.22719q-0.34078 0-0.56303 0.22719-0.21731 0.22719-0.21731 0.59761 0 0.37041 0.21731 0.5976 0.22225 0.22719 0.56303 0.22719z" style="font-feature-settings:normal;font-variant-caps:normal;font-variant-ligatures:normal;font-variant-numeric:normal"/>
<path d="m280.54 293.37q0.49883 0 0.8001 0.29139 0.30128 0.2914 0.30128 0.86431v1.5113h-0.61737v-1.4323q0-0.34572-0.16298-0.51858-0.16298-0.1778-0.46425-0.1778-0.34079 0-0.53834 0.20743-0.19756 0.2025-0.19756 0.58773v1.3335h-0.61736v-2.6374h0.58773v0.34079q0.1531-0.18274 0.38523-0.27658 0.23213-0.0938 0.52352-0.0938z" style="font-feature-settings:normal;font-variant-caps:normal;font-variant-ligatures:normal;font-variant-numeric:normal"/>
<path d="m284.94 294.74q0 0.0642-0.01 0.18274h-2.0694q0.0543 0.2914 0.28151 0.46426 0.23213 0.16792 0.57292 0.16792 0.43462 0 0.71613-0.28646l0.33091 0.3803q-0.1778 0.21237-0.44944 0.32103-0.27164 0.10865-0.61242 0.10865-0.43462 0-0.76553-0.17286-0.3309-0.17286-0.51364-0.47907-0.1778-0.31115-0.1778-0.70132 0-0.38524 0.17286-0.69145 0.1778-0.31115 0.48895-0.48401t0.70132-0.17286q0.38523 0 0.68651 0.17286 0.30621 0.16792 0.47413 0.47907 0.17286 0.30621 0.17286 0.7112zm-1.3335-0.86924q-0.29633 0-0.50377 0.1778-0.20249 0.17286-0.24694 0.46425h1.4965q-0.0395-0.28645-0.242-0.46425t-0.50377-0.1778z" style="font-feature-settings:normal;font-variant-caps:normal;font-variant-ligatures:normal;font-variant-numeric:normal"/>
<path d="m287.02 293.37q0.49883 0 0.8001 0.29139 0.30128 0.2914 0.30128 0.86431v1.5113h-0.61737v-1.4323q0-0.34572-0.16298-0.51858-0.16298-0.1778-0.46425-0.1778-0.34079 0-0.53834 0.20743-0.19756 0.2025-0.19756 0.58773v1.3335h-0.61736v-2.6374h0.58773v0.34079q0.1531-0.18274 0.38523-0.27658 0.23213-0.0938 0.52352-0.0938z" style="font-feature-settings:normal;font-variant-caps:normal;font-variant-ligatures:normal;font-variant-numeric:normal"/>
<path d="m290.49 295.9q-0.10866 0.0889-0.2667 0.13335-0.15311 0.0444-0.32597 0.0444-0.43462 0-0.67169-0.22719t-0.23707-0.66181v-1.2693h-0.43462v-0.49389h0.43462v-0.60255h0.61736v0.60255h0.70627v0.49389h-0.70627v1.2545q0 0.19261 0.0938 0.29633 0.0938 0.0988 0.27164 0.0988 0.20744 0 0.34572-0.10866z" style="font-feature-settings:normal;font-variant-caps:normal;font-variant-ligatures:normal;font-variant-numeric:normal"/>
<path d="m294.02 296.09q-0.52352 0-0.94826-0.22719-0.41981-0.23213-0.66182-0.63712-0.23706-0.40499-0.23706-0.91369 0-0.50871 0.242-0.9137 0.24201-0.40498 0.66181-0.63217 0.42475-0.23213 0.94827-0.23213 0.42475 0 0.77541 0.14817 0.35066 0.14816 0.59266 0.42968l-0.41486 0.39017q-0.37536-0.40499-0.92358-0.40499-0.3556 0-0.63711 0.15805-0.28152 0.1531-0.43956 0.42968-0.15805 0.27658-0.15805 0.62724t0.15805 0.62724q0.15804 0.27658 0.43956 0.43462 0.28151 0.15311 0.63711 0.15311 0.54822 0 0.92358-0.40993l0.41486 0.39511q-0.242 0.28152-0.5976 0.42968-0.35066 0.14817-0.77541 0.14817z" style="font-feature-settings:normal;font-variant-caps:normal;font-variant-ligatures:normal;font-variant-numeric:normal"/>
</g>
</g>
<g stroke="#242424" stroke-miterlimit="10">
<g transform="translate(-3.7042 223.15)">
<path class="st6" d="m118.39 56.251 6.0796 6.6733" stroke-width=".68156"/>
<circle class="st6" transform="rotate(90)" cx="62.868" cy="-124.47" r="1.3531" stroke-width=".25773"/>
<g>
<path class="st6" d="m118.25 43.568-6.0796 6.6733" stroke-width=".68156"/>
<circle class="st6" transform="matrix(0,1,1,0,0,0)" cx="50.184" cy="112.17" r="1.3531" stroke-width=".2577"/>
<path class="st6" d="m118.25 43.568v19.371" stroke-width=".68156"/>
</g>
<g stroke-width=".25773">
<circle class="st6" transform="matrix(0,1,1,0,0,0)" cx="43.467" cy="118.25" r="1.3531"/>
<circle class="st6" transform="matrix(0,1,1,0,0,0)" cx="49.871" cy="118.25" r="1.3531"/>
<circle class="st6" transform="matrix(0,1,1,0,0,0)" cx="56.315" cy="118.25" r="1.3531"/>
<circle class="st6" transform="matrix(0,1,1,0,0,0)" cx="62.758" cy="118.25" r="1.3531"/>
</g>
</g>
<g transform="translate(-3.7042 223.15)">
<path class="st6" d="m337.52 56.251-6.0796 6.6733v1.091" stroke-width=".68156"/>
<circle class="st6" transform="matrix(0,1,1,0,0,0)" cx="62.868" cy="331.44" r="1.3531" stroke-width=".25773"/>
<g>
<path class="st6" d="m337.66 43.568 6.0796 6.6733v1.091" stroke-width=".68156"/>
<circle class="st6" transform="rotate(90)" cx="50.184" cy="-343.74" r="1.3531" stroke-width=".2577"/>
<path class="st6" d="m337.66 43.568v19.371" stroke-width=".68156"/>
</g>
<g stroke-width=".25773">
<circle class="st6" transform="rotate(90)" cx="43.467" cy="-337.66" r="1.3531"/>
<circle class="st6" transform="rotate(90)" cx="49.871" cy="-337.66" r="1.3531"/>
<circle class="st6" transform="rotate(90)" cx="56.315" cy="-337.66" r="1.3531"/>
<circle class="st6" transform="rotate(90)" cx="62.758" cy="-337.66" r="1.3531"/>
</g>
</g>
<g transform="translate(-3.7042 223.15)">
<path class="st6" d="m227.92 43.568v13.326" stroke-width=".68156"/>
<circle class="st6" transform="rotate(90)" cx="43.467" cy="-227.92" r="1.3531" stroke-width=".25773"/>
<circle class="st6" transform="rotate(90)" cx="49.871" cy="-227.92" r="1.3531" stroke-width=".25773"/>
<path class="st6" d="m227.92 56.893v6.0454" stroke-width=".68156"/>
<circle class="st6" transform="rotate(90)" cx="56.315" cy="-227.92" r="1.3531" stroke-width=".25773"/>
<circle class="st6" transform="rotate(90)" cx="62.758" cy="-227.92" r="1.3531" stroke-width=".25773"/>
</g>
<g transform="translate(-3.7042 223.15)">
<g>
<path class="st6" d="m173.02 43.568-6.0796 6.6733" stroke-width=".68156"/>
<circle class="st6" transform="matrix(0,1,1,0,0,0)" cx="50.184" cy="166.94" r="1.3531" stroke-width=".2577"/>
<path class="st6" d="m173.02 43.568v19.371" stroke-width=".68156"/>
</g>
<g stroke-width=".25773">
<circle class="st6" transform="matrix(0,1,1,0,0,0)" cx="43.467" cy="173.02" r="1.3531"/>
<circle class="st6" transform="matrix(0,1,1,0,0,0)" cx="49.871" cy="173.02" r="1.3531"/>
<circle class="st6" transform="matrix(0,1,1,0,0,0)" cx="56.315" cy="173.02" r="1.3531"/>
<circle class="st6" transform="matrix(0,1,1,0,0,0)" cx="62.758" cy="173.02" r="1.3531"/>
</g>
</g>
<g transform="translate(-3.7042 223.15)">
<path class="st6" d="m282.8 43.568v12.786" stroke-width=".68156"/>
<path class="st6" d="m282.85 55.978 6.0796 6.6733v1.091" stroke-width=".68156"/>
<circle class="st6" transform="rotate(90)" cx="62.595" cy="-288.93" r="1.3531" stroke-width=".25773"/>
<g>
<path class="st6" d="m282.8 43.568 6.0796 6.6734" stroke-width=".68156"/>
<circle class="st6" transform="rotate(90)" cx="50.184" cy="-288.88" r="1.3531" stroke-width=".2577"/>
<path class="st6" d="m282.8 56.354v6.5852" stroke-width=".68156"/>
</g>
<circle class="st6" transform="rotate(90)" cx="43.467" cy="-282.8" r="1.3531" stroke-width=".25773"/>
<path class="st6" d="m282.66 49.708-6.0796 6.6733v1.091" stroke-width=".68156"/>
<g stroke-width=".25773">
<circle class="st6" transform="rotate(90)" cx="49.871" cy="-282.8" r="1.3531"/>
<circle class="st6" transform="rotate(90)" cx="56.315" cy="-282.8" r="1.3531"/>
<circle class="st6" transform="rotate(90)" cx="62.758" cy="-282.8" r="1.3531"/>
<circle class="st6" transform="matrix(0,1,1,0,0,0)" cx="56.325" cy="276.58" r="1.3531"/>
</g>
</g>
</g>
</g>
</g>
</svg>
